___lwdiv@dividend F 0 COMRAM 1
__CFG_XINST$OFF 0 0 ABS 0
_n 4C 0 COMRAM 1
___lwdiv@counter 15 0 COMRAM 1
WriteCmdXLCD@cmd F 0 COMRAM 1
_SetDDRamAddr F66 0 CODE 0
__end_of_BusyXLCD 105C 0 CODE 0
__size_of_Interrupciones 0 0 ABS 0
__S0 30000E 0 ABS 0
__S1 287 0 ABS 0
__S2 0 0 ABS 0
__CFG_FOSC$INTOSCIO_EC 0 0 ABS 0
__Hintentry 0 0 ABS 0
__Lintentry 0 0 ABS 0
_aux 4B 0 COMRAM 1
__end_of_putsXLCD E32 0 CODE 0
putsXLCD@buffer 10 0 COMRAM 1
delayms@n 12 0 COMRAM 1
main@AciertosString 280 0 BANK2 1
_itoa E32 0 CODE 0
_utoa A7C 0 CODE 0
_main 884 0 CODE 0
___sp 0 0 STACK 2
start 18 0 CODE 0
__end_of_strcpy 10BE 0 CODE 0
_TRISD F95 0 ABS 0
__Hirdata 0 0 CODE 0
__Lirdata 0 0 CODE 0
__HRAM 0 0 ABS 0
_PORTD F83 0 ABS 0
__LRAM 1 0 ABS 0
itoa@base 23 0 COMRAM 1
utoa@base 1A 0 COMRAM 1
strcpy@cp 13 0 COMRAM 1
__CFG_WDTPS$32768 0 0 ABS 0
__Hconfig 30000E 0 CONFIG 0
__Lconfig 300000 0 CONFIG 0
OpenXLCD@lcdtype 11 0 COMRAM 1
utoa@c 1E 0 COMRAM 1
?___lwmod F 0 COMRAM 1
__Hbigram 0 0 ABS 0
__Lbigram 0 0 ABS 0
__Hrparam 0 0 ABS 0
utoa@v 1C 0 COMRAM 1
__Lrparam 0 0 ABS 0
__Hram 0 0 ABS 0
_SetUp 980 0 CODE 0
__Lram 0 0 ABS 0
__Hcomram 0 0 ABS 0
__Lcomram 0 0 ABS 0
__Hsfr 0 0 ABS 0
__Lsfr 0 0 ABS 0
__end_of__stringdata 7FFE 0 MEDIUMCONST 0
__Hbss 0 0 RAM 1
__CFG_STVREN$ON 0 0 ABS 0
__Lbss 0 0 RAM 1
__Hnvrram 0 0 COMRAM 1
strcpy@to F 0 COMRAM 1
__Lnvrram 0 0 COMRAM 1
__end_of_MostrarPregunta F24 0 CODE 0
__Heeprom_data 0 0 EEDATA 0
__Leeprom_data 0 0 EEDATA 0
__Hintsave_regs 0 0 BIGRAM 1
_LATEbits F8D 0 ABS 0
__Lintsave_regs 0 0 BIGRAM 1
_RCONbits FD0 0 ABS 0
main@Respuesta 285 0 BANK2 1
__Hbigbss 0 0 BIGRAM 1
__Lbigbss 0 0 BIGRAM 1
__Hintret 0 0 ABS 0
__Lintret 0 0 ABS 0
__Hramtop 800 0 RAM 0
__Lramtop 800 0 RAM 0
__Hstruct 0 0 COMRAM 1
__Lstruct 0 0 COMRAM 1
__Hbigdata 0 0 BIGRAM 1
__Lbigdata 0 0 BIGRAM 1
__Hmediumconst 8000 0 MEDIUMCONST 0
__Lmediumconst 7E20 0 MEDIUMCONST 0
?___lwdiv F 0 COMRAM 1
__Hfarbss 0 0 FARRAM 0
__Lfarbss 0 0 FARRAM 0
__pmediumconst 7E20 0 MEDIUMCONST 0
__Hintcode 18 0 CODE 0
__Lintcode 8 0 CODE 0
__Hfardata 0 0 FARRAM 0
__Lfardata 0 0 FARRAM 0
__size_of_strcpy 0 0 ABS 0
__pintcode 8 0 CODE 0
__Habs1 0 0 ABS 0
__Labs1 0 0 ABS 0
__CFG_EBTR0$OFF 0 0 ABS 0
_Creditos 592 0 CODE 0
_DelayPORXLCD 1118 0 CODE 0
__size_of_EscogerPregunta 0 0 ABS 0
main@Verif 284 0 BANK2 1
__size_of_delayms 0 0 ABS 0
__HnvFARRAM 0 0 FARRAM 0
__LnvFARRAM 0 0 FARRAM 0
__CFG_EBTR1$OFF 0 0 ABS 0
_Delay10KTCYx 1102 0 CODE 0
__CFG_PBADEN$OFF 0 0 ABS 0
__CFG_EBTR2$OFF 0 0 ABS 0
EscogerPregunta@n 32 0 COMRAM 1
MostrarPregunta@n 12 0 COMRAM 1
__Hdata 0 0 ABS 0
__Ldata 0 0 ABS 0
itoa@cp 25 0 COMRAM 1
__CFG_EBTR3$OFF 0 0 ABS 0
stackhi 7FF 0 ABS 0
__CFG_CPUDIV$OSC1_PLL2 0 0 ABS 0
_GetKey CF0 0 CODE 0
__Htemp 0 0 COMRAM 1
__Ltemp 0 0 COMRAM 1
stacklo 287 0 ABS 0
__Hrbit 0 0 COMRAM 1
__Lrbit 0 0 COMRAM 1
__CFG_BOR$ON 0 0 ABS 0
__Hinit 18 0 CODE 0
__Linit 18 0 CODE 0
__Hintcodelo 18 0 CODE 0
delayms@ms F 0 COMRAM 1
__Lintcodelo 18 0 CODE 0
__Hrbss 0 0 COMRAM 1
__end_of_main 980 0 CODE 0
__Lrbss 0 0 COMRAM 1
__size_of_Creditos 0 0 ABS 0
_VerificarRespuesta 1C 0 CODE 0
__Htext 0 0 ABS 0
__Ltext 0 0 ABS 0
__CFG_CCP2MX$ON 0 0 ABS 0
_strcpy 108E 0 CODE 0
__HdataBANK0 0 0 ABS 0
__LdataBANK0 0 0 ABS 0
__pdataBANK0 60 0 BANK0 1
__end_of_DelayFor18TCY 1130 0 CODE 0
end_of_initialization DCC 0 CODE 0
Delay10KTCYx@unit 10 0 COMRAM 1
__CFG_USBDIV$1 0 0 ABS 0
_Mensaje01 E1 0 BANK0 1
__CFG_VREGEN$OFF 0 0 ABS 0
_Mensaje02 F0 0 BANK0 1
SetDDRamAddr@DDaddr F 0 COMRAM 1
__CFG_PLLDIV$1 0 0 ABS 0
_Mensaje03 B1 0 BANK0 1
__size_of_IniciaLCD 0 0 ABS 0
VerificarRespuesta@texto 17 0 COMRAM 1
_Mensaje04 6D 0 BANK0 1
__size_of_TextoPreguntas 0 0 ABS 0
_WriteCmdXLCD FE4 0 CODE 0
_TRISAbits F92 0 ABS 0
_TRISBbits F93 0 ABS 0
_TRISCbits F94 0 ABS 0
_PORTAbits F80 0 ABS 0
_PORTBbits F81 0 ABS 0
_TRISEbits F96 0 ABS 0
_PORTCbits F82 0 ABS 0
_Mensaje05 C1 0 BANK0 1
_Respuesta10 7EA4 0 MEDIUMCONST 0
__size_of_Delay10KTCYx 0 0 ABS 0
__size_of_SetUp 0 0 ABS 0
_Mensaje06 7E 0 BANK0 1
__end_of_VerificarRespuesta 350 0 CODE 0
__Hibigdata 0 0 CODE 0
__Libigdata 0 0 CODE 0
__end_of_WriteCmdXLCD 1022 0 CODE 0
_Mensaje07 8F 0 BANK0 1
_Respuesta01 7EAD 0 MEDIUMCONST 0
__Hifardata 0 0 CODE 0
__Lifardata 0 0 CODE 0
__Hbank0 0 0 ABS 0
__Lbank0 0 0 ABS 0
_Mensaje08 A0 0 BANK0 1
__Hbank1 0 0 ABS 0
__Lbank1 0 0 ABS 0
__Hbank2 0 0 ABS 0
__Lbank2 0 0 ABS 0
__Hbank3 0 0 ABS 0
__Lbank3 0 0 ABS 0
__Hbank4 0 0 ABS 0
__Lbank4 0 0 ABS 0
_Respuesta11 7E43 0 MEDIUMCONST 0
__Hbank5 0 0 ABS 0
__Lbank5 0 0 ABS 0
__Hpowerup 18 0 CODE 0
__Lpowerup 18 0 CODE 0
__Hbank6 0 0 ABS 0
__Lbank6 0 0 ABS 0
__Hbank7 0 0 ABS 0
__Lbank7 0 0 ABS 0
__Htext0 0 0 ABS 0
__Ltext0 0 0 ABS 0
__end_of_GetKey D68 0 CODE 0
__Htext1 0 0 ABS 0
__Ltext1 0 0 ABS 0
__ptext0 884 0 CODE 0
_INTCON2bits FF1 0 ABS 0
__Htext2 0 0 ABS 0
__Ltext2 0 0 ABS 0
__ptext1 E32 0 CODE 0
_INTCON3bits FF0 0 ABS 0
main@Aciertos 286 0 BANK2 1
__Htext3 0 0 ABS 0
__Ltext3 0 0 ABS 0
__ptext2 A7C 0 CODE 0
__Htext4 0 0 ABS 0
__Ltext4 0 0 ABS 0
__ptext3 F24 0 CODE 0
_Respuesta02 7E9B 0 MEDIUMCONST 0
__Htext5 0 0 ABS 0
__Ltext5 0 0 ABS 0
__ptext4 E84 0 CODE 0
__Htext6 0 0 ABS 0
__Ltext6 0 0 ABS 0
__ptext5 1C 0 CODE 0
__Htext7 0 0 ABS 0
__Ltext7 0 0 ABS 0
__ptext6 980 0 CODE 0
__HbssCOMRAM 0 0 ABS 0
__LbssCOMRAM 0 0 ABS 0
__Htext8 0 0 ABS 0
__Ltext8 0 0 ABS 0
__ptext7 350 0 CODE 0
__pbssCOMRAM 4B 0 COMRAM 1
_EscogerPregunta 714 0 CODE 0
__Htext9 0 0 ABS 0
__Ltext9 0 0 ABS 0
__ptext8 108E 0 CODE 0
__ptext9 105C 0 CODE 0
__Hclrtext 0 0 ABS 0
_MostrarPregunta ED6 0 CODE 0
__Lclrtext 0 0 ABS 0
_Respuesta12 7E70 0 MEDIUMCONST 0
__size_of_MostrarPregunta 0 0 ABS 0
_Respuesta03 7E21 0 MEDIUMCONST 0
__end_of__initialization DCC 0 CODE 0
__end_of_Interrupciones CF0 0 CODE 0
__end_of_OpenXLCD BC4 0 CODE 0
__end_of___lwdiv ED6 0 CODE 0
__end_of_Creditos 714 0 CODE 0
_Respuesta04 7E54 0 MEDIUMCONST 0
__end_of_EscogerPregunta 884 0 CODE 0
__end_of_WriteDataXLCD FE4 0 CODE 0
WriteDataXLCD@data F 0 COMRAM 1
__Hidata 0 0 CODE 0
__Lidata 0 0 CODE 0
__Hrdata 0 0 COMRAM 1
__Lrdata 0 0 COMRAM 1
__Hidloc 200008 0 IDLOC 0
itoa@buf 1F 0 COMRAM 1
__Lidloc 200000 0 IDLOC 0
utoa@buf 16 0 COMRAM 1
itoa@val 21 0 COMRAM 1
utoa@val 18 0 COMRAM 1
__Hstack 0 0 STACK 2
__Lstack 0 0 STACK 2
int_func C64 0 CODE 0
_IniciaLCD 105C 0 CODE 0
_DelayFor18TCY 1128 0 CODE 0
___lwmod F24 0 CODE 0
__Hparam 0 0 ABS 0
__Lparam 0 0 ABS 0
__Hspace_0 30000E 0 ABS 0
__HcstackCOMRAM 0 0 ABS 0
__Lspace_0 0 0 ABS 0
__LcstackCOMRAM 0 0 ABS 0
__size_of_VerificarRespuesta 0 0 ABS 0
__pcstackCOMRAM 1 0 COMRAM 1
_Respuesta05 7E7D 0 MEDIUMCONST 0
__Hspace_1 287 0 ABS 0
__Lspace_1 0 0 ABS 0
__Hsmallconst 0 0 SMALLCONST 0
__Lsmallconst 0 0 SMALLCONST 0
__Hspace_2 0 0 ABS 0
__Lspace_2 0 0 ABS 0
__Hnvbit 0 0 COMRAM 1
__Lnvbit 0 0 COMRAM 1
__Hcinit 0 0 ABS 0
__Lcinit 0 0 ABS 0
__pcinit D68 0 CODE 0
__CFG_EBTRB$OFF 0 0 ABS 0
__ramtop 800 0 RAM 0
__mediumconst 7E20 0 MEDIUMCONST 0
___lwdiv E84 0 CODE 0
__size_of_main 0 0 ABS 0
_delayms 10BE 0 CODE 0
__Hconst 0 0 CODE 0
__Lconst 0 0 CODE 0
__end_of_TextoPreguntas 592 0 CODE 0
__size_of_WriteDataXLCD 0 0 ABS 0
__size_of_itoa 0 0 ABS 0
_Respuesta06 7E87 0 MEDIUMCONST 0
__HcstackBANK2 0 0 ABS 0
__LcstackBANK2 0 0 ABS 0
__HidataBANK0 0 0 ABS 0
__LidataBANK0 0 0 ABS 0
__pcstackBANK2 280 0 BANK2 1
__pidataBANK0 BC4 0 CODE 0
__CFG_WRT0$OFF 0 0 ABS 0
_Pregunta1 100 0 BANK1 1
__CFG_WRT1$OFF 0 0 ABS 0
_Respuesta07 7E62 0 MEDIUMCONST 0
__size_of___lwdiv 0 0 ABS 0
strcpy@from 11 0 COMRAM 1
_Pregunta2 120 0 BANK1 1
GetKey@auxi F 0 COMRAM 1
__CFG_WRT2$OFF 0 0 ABS 0
__size_of_DelayPORXLCD 0 0 ABS 0
__end_of_SetDDRamAddr FA6 0 CODE 0
_Pregunta3 140 0 BANK1 1
__CFG_PWRT$ON 0 0 ABS 0
_TextoPreguntas 350 0 CODE 0
__CFG_WRT3$OFF 0 0 ABS 0
__CFG_FCMEN$OFF 0 0 ABS 0
__end_of_DelayPORXLCD 1128 0 CODE 0
_Pregunta10 200 0 BANK2 1
_Pregunta4 160 0 BANK1 1
__HbssBANK1 0 0 ABS 0
__LbssBANK1 0 0 ABS 0
__end_of_SetUp A7C 0 CODE 0
__pbssBANK1 100 0 BANK1 1
__Htext10 0 0 ABS 0
__Ltext10 0 0 ABS 0
__Htext20 0 0 ABS 0
__Ltext20 0 0 ABS 0
__ptext10 B20 0 CODE 0
_Pregunta5 180 0 BANK1 1
__Htext11 0 0 ABS 0
__Ltext11 0 0 ABS 0
__end_of_Respuesta10 7EAD 0 MEDIUMCONST 0
__end_of_Respuesta01 7EB4 0 MEDIUMCONST 0
__end_of_Respuesta11 7E54 0 MEDIUMCONST 0
__ptext20 1022 0 CODE 0
__end_of_Respuesta02 7EA4 0 MEDIUMCONST 0
__end_of_Respuesta12 7E7D 0 MEDIUMCONST 0
__end_of_Respuesta03 7E32 0 MEDIUMCONST 0
__end_of_Respuesta04 7E62 0 MEDIUMCONST 0
__end_of_Respuesta05 7E87 0 MEDIUMCONST 0
__end_of_Respuesta06 7E91 0 MEDIUMCONST 0
__end_of_Respuesta07 7E70 0 MEDIUMCONST 0
__end_of_Respuesta08 7E9B 0 MEDIUMCONST 0
__end_of_Respuesta09 7E43 0 MEDIUMCONST 0
_Interrupciones 8 0 CODE 0
__Htext21 0 0 ABS 0
__Ltext21 0 0 ABS 0
__ptext11 1118 0 CODE 0
_Respuesta08 7E91 0 MEDIUMCONST 0
__Htext12 0 0 ABS 0
__Ltext12 0 0 ABS 0
__ptext21 FE4 0 CODE 0
__Htext22 0 0 ABS 0
__Ltext22 0 0 ABS 0
__ptext12 1102 0 CODE 0
_Pregunta11 220 0 BANK2 1
_Pregunta6 1A0 0 BANK1 1
__Htext13 0 0 ABS 0
__Ltext13 0 0 ABS 0
__HbssBANK2 0 0 ABS 0
__ptext22 F66 0 CODE 0
__LbssBANK2 0 0 ABS 0
__end_of_Delay10KTCYx 1118 0 CODE 0
__Htext23 0 0 ABS 0
__Ltext23 0 0 ABS 0
__ptext13 592 0 CODE 0
__pbssBANK2 200 0 BANK2 1
__Htext14 0 0 ABS 0
__Ltext14 0 0 ABS 0
_ADCON1bits FC1 0 ABS 0
__ptext23 1128 0 CODE 0
__ptext14 10BE 0 CODE 0
_Pregunta7 1C0 0 BANK1 1
__Htext15 0 0 ABS 0
__Ltext15 0 0 ABS 0
__end_of_delayms 10EA 0 CODE 0
__ptext15 CF0 0 CODE 0
___inthi_sp 0 0 STACK 2
__Htext16 0 0 ABS 0
__Ltext16 0 0 ABS 0
__ptext16 714 0 CODE 0
_Pregunta12 240 0 BANK2 1
_Pregunta8 1E0 0 BANK1 1
__Htext17 0 0 ABS 0
__Ltext17 0 0 ABS 0
__ptext17 ED6 0 CODE 0
_Respuestas 60 0 BANK0 1
__Htext18 0 0 ABS 0
__end_of___lwmod F66 0 CODE 0
__Ltext18 0 0 ABS 0
___lwmod@divisor 11 0 COMRAM 1
__ptext18 DD6 0 CODE 0
_Pregunta9 260 0 BANK2 1
__Htext19 0 0 ABS 0
__Ltext19 0 0 ABS 0
__ptext19 FA6 0 CODE 0
_Respuesta09 7E32 0 MEDIUMCONST 0
__CFG_BORV$3 0 0 ABS 0
___intlo_sp 0 0 STACK 2
_OSCCONbits FD3 0 ABS 0
_INTCONbits FF2 0 ABS 0
__Hend_init 1C 0 CODE 0
__Lend_init 18 0 CODE 0
__HidataCOMRAM 0 0 ABS 0
__LidataCOMRAM 0 0 ABS 0
___lwdiv@divisor 11 0 COMRAM 1
__pidataCOMRAM 10EA 0 CODE 0
_WriteDataXLCD FA6 0 CODE 0
_OpenXLCD B20 0 CODE 0
_BusyXLCD 1022 0 CODE 0
_putsXLCD DD6 0 CODE 0
__CFG_CP0$OFF 0 0 ABS 0
__smallconst 0 0 SMALLCONST 0
__CFG_CP1$OFF 0 0 ABS 0
__Hreset_vec 4 0 CODE 0
__Lreset_vec 0 0 CODE 0
__CFG_CP2$OFF 0 0 ABS 0
__end_of_itoa E84 0 CODE 0
__CFG_CP3$OFF 0 0 ABS 0
_Mensaje1 40 0 COMRAM 1
__stringdata 7EB4 0 MEDIUMCONST 0
_Mensaje2 33 0 COMRAM 1
__size_of_OpenXLCD 0 0 ABS 0
__accesstop 60 0 ABS 0
__Hintcode_body 0 0 ABS 0
_Mensaje3 D1 0 BANK0 1
__size_of_WriteCmdXLCD 0 0 ABS 0
__Lintcode_body 0 0 ABS 0
VerificarRespuesta@RespuestaActual 15 0 COMRAM 1
__pintcode_body C64 0 CODE 0
intlevel0 0 0 CODE 0
intlevel1 0 0 CODE 0
__CFG_WRTB$OFF 0 0 ABS 0
intlevel2 0 0 CODE 0
intlevel3 0 0 CODE 0
__CFG_WRTC$OFF 0 0 ABS 0
__size_of_BusyXLCD 0 0 ABS 0
__CFG_WRTD$OFF 0 0 ABS 0
VerificarRespuesta@NumPregunta 16 0 COMRAM 1
__size_of_utoa 0 0 ABS 0
__size_of_GetKey 0 0 ABS 0
__size_of_SetDDRamAddr 0 0 ABS 0
__HdataCOMRAM 0 0 ABS 0
__LdataCOMRAM 0 0 ABS 0
__size_of___lwmod 0 0 ABS 0
__pdataCOMRAM 33 0 COMRAM 1
__CFG_CPB$OFF 0 0 ABS 0
__size_of_putsXLCD 0 0 ABS 0
__CFG_CPD$OFF 0 0 ABS 0
start_initialization D68 0 CODE 0
___lwdiv@quotient 13 0 COMRAM 1
__size_of_DelayFor18TCY 0 0 ABS 0
__CFG_IESO$OFF 0 0 ABS 0
__CFG_MCLRE$ON 0 0 ABS 0
__end_of_utoa B20 0 CODE 0
__initialization D68 0 CODE 0
__end_of_IniciaLCD 108E 0 CODE 0
__CFG_LPT1OSC$OFF 0 0 ABS 0
___lwmod@dividend F 0 COMRAM 1
__CFG_ICPRT$OFF 0 0 ABS 0
__activetblptr 2 0 ABS 0
___lwmod@counter 13 0 COMRAM 1
__CFG_WDT$OFF 0 0 ABS 0
__CFG_LVP$OFF 0 0 ABS 0
%segments
reset_vec 0 3 CODE 0 0
intcode 8 C62 CODE 8 0
mediumconst 7E20 7FFF MEDIUMCONST 7E20 0
config 300000 30000D CONFIG 300000 0
idloc 200000 200007 IDLOC 200000 0
cstackCOMRAM 1 4C COMRAM 1 1
dataBANK0 60 FE BANK0 60 1
bssBANK1 100 1FF BANK1 100 1
bssBANK2 200 286 BANK2 200 1
intcode_body C64 112F CODE C64 0
%locals
dist/default/production\Test.X.production.obj
C:\Program Files (x86)\Microchip\xc8\v1.33\include\pic18f4550.h
C:\Users\SEBAST~1\AppData\Local\Temp\s7es.
1545 D68 0 CODE 0
1547 D68 0 CODE 0
1550 D68 0 CODE 0
1683 D68 0 CODE 0
1684 D6C 0 CODE 0
1685 D6E 0 CODE 0
1686 D6E 0 CODE 0
1687 D70 0 CODE 0
1688 D72 0 CODE 0
1691 D74 0 CODE 0
1692 D78 0 CODE 0
1693 D7C 0 CODE 0
1694 D7C 0 CODE 0
1695 D7E 0 CODE 0
1696 D80 0 CODE 0
1697 D82 0 CODE 0
1698 D84 0 CODE 0
1699 D86 0 CODE 0
1702 D88 0 CODE 0
1703 D8A 0 CODE 0
1708 D8C 0 CODE 0
1709 D8E 0 CODE 0
1710 D90 0 CODE 0
1711 D92 0 CODE 0
1712 D94 0 CODE 0
1713 D96 0 CODE 0
1714 D98 0 CODE 0
1715 D9C 0 CODE 0
1716 DA0 0 CODE 0
1717 DA0 0 CODE 0
1718 DA2 0 CODE 0
1719 DA6 0 CODE 0
1720 DA8 0 CODE 0
1721 DAA 0 CODE 0
1725 DAC 0 CODE 0
1726 DAE 0 CODE 0
1727 DB0 0 CODE 0
1728 DB2 0 CODE 0
1729 DB4 0 CODE 0
1730 DB6 0 CODE 0
1731 DB8 0 CODE 0
1732 DBC 0 CODE 0
1733 DC0 0 CODE 0
1734 DC0 0 CODE 0
1735 DC2 0 CODE 0
1736 DC6 0 CODE 0
1737 DC8 0 CODE 0
1738 DCA 0 CODE 0
1744 DCC 0 CODE 0
1746 DCC 0 CODE 0
1747 DCE 0 CODE 0
1748 DD0 0 CODE 0
1749 DD2 0 CODE 0
main.c
95 884 0 CODE 0
97 884 0 CODE 0
102 88A 0 CODE 0
104 88E 0 CODE 0
106 894 0 CODE 0
107 898 0 CODE 0
109 89E 0 CODE 0
110 8A4 0 CODE 0
111 8A6 0 CODE 0
112 8A8 0 CODE 0
113 8AA 0 CODE 0
114 8B2 0 CODE 0
115 8BA 0 CODE 0
116 8C8 0 CODE 0
118 8D4 0 CODE 0
120 8DA 0 CODE 0
122 8E0 0 CODE 0
123 8E8 0 CODE 0
104 8F0 0 CODE 0
126 8F8 0 CODE 0
127 908 0 CODE 0
128 928 0 CODE 0
129 93E 0 CODE 0
130 94E 0 CODE 0
131 968 0 CODE 0
133 97E 0 CODE 0
C:\Program Files (x86)\Microchip\xc8\v1.33\sources\common\itoa.c
4 E32 0 CODE 0
6 E32 0 CODE 0
8 E3A 0 CODE 0
9 E4E 0 CODE 0
10 E5E 0 CODE 0
12 E66 0 CODE 0
14 E82 0 CODE 0
C:\Program Files (x86)\Microchip\xc8\v1.33\sources\common\itoa.c
17 A7C 0 CODE 0
22 A7C 0 CODE 0
24 A84 0 CODE 0
25 AA0 0 CODE 0
26 AA4 0 CODE 0
27 AAC 0 CODE 0
29 ABE 0 CODE 0
30 AD6 0 CODE 0
31 AF2 0 CODE 0
32 AF8 0 CODE 0
33 AFC 0 CODE 0
34 B00 0 CODE 0
35 B12 0 CODE 0
36 B1A 0 CODE 0
37 B1E 0 CODE 0
C:\Program Files (x86)\Microchip\xc8\v1.33\sources\common\lwmod.c
8 F24 0 CODE 0
13 F24 0 CODE 0
14 F2C 0 CODE 0
15 F30 0 CODE 0
16 F32 0 CODE 0
17 F38 0 CODE 0
15 F3A 0 CODE 0
20 F3E 0 CODE 0
21 F4A 0 CODE 0
22 F52 0 CODE 0
23 F58 0 CODE 0
24 F5C 0 CODE 0
25 F5C 0 CODE 0
26 F64 0 CODE 0
C:\Program Files (x86)\Microchip\xc8\v1.33\sources\common\lwdiv.c
8 E84 0 CODE 0
14 E84 0 CODE 0
15 E8C 0 CODE 0
16 E94 0 CODE 0
17 E98 0 CODE 0
18 E9A 0 CODE 0
19 EA0 0 CODE 0
17 EA2 0 CODE 0
22 EA6 0 CODE 0
23 EAC 0 CODE 0
24 EB8 0 CODE 0
25 EC0 0 CODE 0
27 EC2 0 CODE 0
28 EC8 0 CODE 0
29 ECC 0 CODE 0
30 ECC 0 CODE 0
31 ED4 0 CODE 0
main.c
326 1C 0 CODE 0
328 1E 0 CODE 0
334 30 0 CODE 0
335 44 0 CODE 0
338 5C 0 CODE 0
339 70 0 CODE 0
342 88 0 CODE 0
343 9C 0 CODE 0
346 B4 0 CODE 0
347 C8 0 CODE 0
350 E0 0 CODE 0
351 F4 0 CODE 0
354 10C 0 CODE 0
355 120 0 CODE 0
358 138 0 CODE 0
359 14C 0 CODE 0
362 164 0 CODE 0
363 178 0 CODE 0
366 190 0 CODE 0
367 1A4 0 CODE 0
370 1BC 0 CODE 0
371 1D0 0 CODE 0
374 1E8 0 CODE 0
375 1FC 0 CODE 0
378 214 0 CODE 0
379 228 0 CODE 0
331 240 0 CODE 0
383 28A 0 CODE 0
385 296 0 CODE 0
387 2B0 0 CODE 0
388 2C0 0 CODE 0
389 2C2 0 CODE 0
390 2C4 0 CODE 0
391 2C6 0 CODE 0
392 2D2 0 CODE 0
393 2E2 0 CODE 0
394 2F8 0 CODE 0
395 2FC 0 CODE 0
396 2FC 0 CODE 0
398 300 0 CODE 0
402 304 0 CODE 0
403 314 0 CODE 0
404 316 0 CODE 0
405 318 0 CODE 0
406 31A 0 CODE 0
407 326 0 CODE 0
408 336 0 CODE 0
409 34C 0 CODE 0
411 34E 0 CODE 0
main.c
137 980 0 CODE 0
139 980 0 CODE 0
140 988 0 CODE 0
142 990 0 CODE 0
145 994 0 CODE 0
146 996 0 CODE 0
147 998 0 CODE 0
148 99A 0 CODE 0
149 99C 0 CODE 0
150 99E 0 CODE 0
151 9A0 0 CODE 0
152 9A2 0 CODE 0
153 9A4 0 CODE 0
154 9A6 0 CODE 0
155 9A8 0 CODE 0
156 9AA 0 CODE 0
157 9AC 0 CODE 0
158 9AE 0 CODE 0
159 9B0 0 CODE 0
160 9B2 0 CODE 0
161 9B4 0 CODE 0
163 9B6 0 CODE 0
164 9B8 0 CODE 0
165 9BA 0 CODE 0
167 9BC 0 CODE 0
168 9C0 0 CODE 0
170 9C4 0 CODE 0
171 9D4 0 CODE 0
172 9E4 0 CODE 0
173 9F0 0 CODE 0
174 9FC 0 CODE 0
175 A0C 0 CODE 0
176 A22 0 CODE 0
177 A32 0 CODE 0
178 A42 0 CODE 0
179 A4E 0 CODE 0
180 A5E 0 CODE 0
182 A6E 0 CODE 0
183 A70 0 CODE 0
184 A72 0 CODE 0
185 A74 0 CODE 0
186 A76 0 CODE 0
187 A78 0 CODE 0
188 A7A 0 CODE 0
main.c
238 350 0 CODE 0
240 350 0 CODE 0
241 368 0 CODE 0
243 380 0 CODE 0
244 398 0 CODE 0
246 3B0 0 CODE 0
247 3C8 0 CODE 0
249 3E0 0 CODE 0
250 3F8 0 CODE 0
252 410 0 CODE 0
253 428 0 CODE 0
255 440 0 CODE 0
256 458 0 CODE 0
258 470 0 CODE 0
259 488 0 CODE 0
261 4A0 0 CODE 0
262 4B8 0 CODE 0
264 4D0 0 CODE 0
265 4E8 0 CODE 0
267 500 0 CODE 0
268 518 0 CODE 0
270 530 0 CODE 0
271 548 0 CODE 0
273 560 0 CODE 0
274 578 0 CODE 0
275 590 0 CODE 0
C:\Program Files (x86)\Microchip\xc8\v1.33\sources\common\strcpy.c
8 108E 0 CODE 0
18 108E 0 CODE 0
19 1096 0 CODE 0
20 1098 0 CODE 0
21 109C 0 CODE 0
19 10A0 0 CODE 0
24 10BA 0 CODE 0
19 10BC 0 CODE 0
main.c
190 105C 0 CODE 0
192 105C 0 CODE 0
193 106C 0 CODE 0
194 107C 0 CODE 0
195 108A 0 CODE 0
194 108C 0 CODE 0
DriveLCD.h
227 B20 0 CODE 0
236 B22 0 CODE 0
237 B26 0 CODE 0
243 B2A 0 CODE 0
244 B2C 0 CODE 0
245 B2E 0 CODE 0
246 B30 0 CODE 0
247 B32 0 CODE 0
248 B34 0 CODE 0
251 B36 0 CODE 0
253 B3A 0 CODE 0
254 B40 0 CODE 0
256 B46 0 CODE 0
257 B4C 0 CODE 0
260 B52 0 CODE 0
261 B58 0 CODE 0
266 B62 0 CODE 0
267 B6C 0 CODE 0
270 B72 0 CODE 0
271 B7C 0 CODE 0
272 B82 0 CODE 0
273 B8C 0 CODE 0
276 B92 0 CODE 0
277 B9C 0 CODE 0
280 BA2 0 CODE 0
281 BAC 0 CODE 0
284 BB2 0 CODE 0
285 BBC 0 CODE 0
288 BC2 0 CODE 0
DriveLCD.h
685 1118 0 CODE 0
687 1118 0 CODE 0
689 1126 0 CODE 0
C:\Program Files (x86)\Microchip\xc8\v1.33\sources\pic18\d10ktcyx.c
8 1102 0 CODE 0
10 1104 0 CODE 0
11 1104 0 CODE 0
12 1112 0 CODE 0
13 1116 0 CODE 0
main.c
413 592 0 CODE 0
415 592 0 CODE 0
416 5BC 0 CODE 0
417 5E6 0 CODE 0
419 5F2 0 CODE 0
420 602 0 CODE 0
421 61C 0 CODE 0
422 646 0 CODE 0
424 652 0 CODE 0
425 662 0 CODE 0
426 67C 0 CODE 0
427 6A6 0 CODE 0
429 6B2 0 CODE 0
430 6C2 0 CODE 0
431 6DC 0 CODE 0
432 706 0 CODE 0
433 712 0 CODE 0
main.c
277 10BE 0 CODE 0
279 10BE 0 CODE 0
281 10C8 0 CODE 0
279 10D0 0 CODE 0
283 10E6 0 CODE 0
279 10E8 0 CODE 0
main.c
285 CF0 0 CODE 0
287 CF0 0 CODE 0
290 CF4 0 CODE 0
291 CFC 0 CODE 0
292 D04 0 CODE 0
293 D0C 0 CODE 0
294 D14 0 CODE 0
295 D1C 0 CODE 0
296 D24 0 CODE 0
297 D2C 0 CODE 0
298 D34 0 CODE 0
299 D3C 0 CODE 0
300 D44 0 CODE 0
301 D4C 0 CODE 0
302 D54 0 CODE 0
303 D5C 0 CODE 0
304 D60 0 CODE 0
306 D66 0 CODE 0
main.c
205 714 0 CODE 0
206 714 0 CODE 0
207 716 0 CODE 0
210 718 0 CODE 0
212 730 0 CODE 0
214 748 0 CODE 0
216 760 0 CODE 0
218 778 0 CODE 0
220 790 0 CODE 0
222 7A8 0 CODE 0
224 7C0 0 CODE 0
226 7D8 0 CODE 0
228 7F0 0 CODE 0
230 808 0 CODE 0
232 820 0 CODE 0
207 838 0 CODE 0
236 882 0 CODE 0
main.c
197 ED6 0 CODE 0
199 ED6 0 CODE 0
200 EE6 0 CODE 0
201 EFC 0 CODE 0
202 F0C 0 CODE 0
203 F20 0 CODE 0
202 F22 0 CODE 0
DriveLCD.h
325 DD6 0 CODE 0
327 DD6 0 CODE 0
329 DD8 0 CODE 0
330 DE2 0 CODE 0
331 E06 0 CODE 0
327 E0A 0 CODE 0
334 E2E 0 CODE 0
327 E30 0 CODE 0
DriveLCD.h
627 FA6 0 CODE 0
642 FA8 0 CODE 0
643 FAC 0 CODE 0
644 FB0 0 CODE 0
650 FB6 0 CODE 0
651 FB8 0 CODE 0
652 FBA 0 CODE 0
653 FBE 0 CODE 0
654 FC0 0 CODE 0
655 FC4 0 CODE 0
657 FC6 0 CODE 0
658 FCA 0 CODE 0
663 FD2 0 CODE 0
664 FD6 0 CODE 0
665 FD8 0 CODE 0
666 FDC 0 CODE 0
668 FDE 0 CODE 0
674 FE2 0 CODE 0
DriveLCD.h
165 1022 0 CODE 0
167 1022 0 CODE 0
168 1024 0 CODE 0
169 1026 0 CODE 0
170 102A 0 CODE 0
171 102C 0 CODE 0
187 1030 0 CODE 0
192 1034 0 CODE 0
193 1036 0 CODE 0
194 103A 0 CODE 0
195 103C 0 CODE 0
196 1040 0 CODE 0
197 1042 0 CODE 0
198 1044 0 CODE 0
200 1048 0 CODE 0
202 1048 0 CODE 0
203 104A 0 CODE 0
204 104E 0 CODE 0
205 1050 0 CODE 0
206 1054 0 CODE 0
207 1056 0 CODE 0
208 1058 0 CODE 0
211 105A 0 CODE 0
DriveLCD.h
566 FE4 0 CODE 0
581 FE6 0 CODE 0
582 FEA 0 CODE 0
583 FEE 0 CODE 0
589 FF4 0 CODE 0
590 FF6 0 CODE 0
591 FF8 0 CODE 0
592 FFC 0 CODE 0
593 FFE 0 CODE 0
594 1002 0 CODE 0
596 1004 0 CODE 0
597 1008 0 CODE 0
602 1010 0 CODE 0
603 1014 0 CODE 0
604 1016 0 CODE 0
605 101A 0 CODE 0
607 101C 0 CODE 0
613 1020 0 CODE 0
DriveLCD.h
508 F66 0 CODE 0
523 F68 0 CODE 0
524 F6C 0 CODE 0
525 F70 0 CODE 0
531 F78 0 CODE 0
532 F7A 0 CODE 0
533 F7C 0 CODE 0
534 F80 0 CODE 0
535 F82 0 CODE 0
536 F86 0 CODE 0
538 F88 0 CODE 0
539 F8C 0 CODE 0
544 F94 0 CODE 0
545 F98 0 CODE 0
546 F9A 0 CODE 0
547 F9E 0 CODE 0
549 FA0 0 CODE 0
555 FA4 0 CODE 0
DriveLCD.h
679 1128 0 CODE 0
681 1128 0 CODE 0
683 112E 0 CODE 0
DriveLCD.h
683 8 0 CODE 0
main.c
308 8 0 CODE 0
main.c
308 C64 0 CODE 0
310 C92 0 CODE 0
312 C96 0 CODE 0
313 C9A 0 CODE 0
315 C9C 0 CODE 0
317 CA0 0 CODE 0
318 CA4 0 CODE 0
319 CAA 0 CODE 0
321 CAE 0 CODE 0
322 CB4 0 CODE 0
324 CB6 0 CODE 0
