__CFG_XINST$OFF 0 0 ABS 0
__S0 30000E 0 ABS 0
__S1 3 0 ABS 0
__S2 0 0 ABS 0
__CFG_FOSC$INTOSCIO_EC 0 0 ABS 0
__Hintentry 0 0 ABS 0
__Lintentry 0 0 ABS 0
_main 7FDA 0 CODE 0
___sp 0 0 STACK 2
start 0 0 CODE 0
_TMR0H FD7 0 ABS 0
__end_of_Timer0Initialize 7FC6 0 CODE 0
_TMR0L FD6 0 ABS 0
__Hirdata 0 0 CODE 0
__Lirdata 0 0 CODE 0
__HRAM 0 0 ABS 0
__LRAM 1 0 ABS 0
_Timer0Initialize 7FB4 0 CODE 0
__CFG_WDTPS$32768 0 0 ABS 0
__Hconfig 30000E 0 CONFIG 0
__Lconfig 300000 0 CONFIG 0
__Hbigram 0 0 ABS 0
__Lbigram 0 0 ABS 0
__Hrparam 0 0 COMRAM 1
__Lrparam 0 0 COMRAM 1
__Hram 0 0 ABS 0
_SetUp 7FC6 0 CODE 0
__Lram 0 0 ABS 0
__Hcomram 0 0 ABS 0
__Lcomram 0 0 ABS 0
__Hsfr 0 0 ABS 0
__Lsfr 0 0 ABS 0
__Hbss 0 0 RAM 1
__CFG_STVREN$ON 0 0 ABS 0
__Lbss 0 0 RAM 1
_Delay 7FA4 0 CODE 0
___param_bank 0 0 ABS 0
__Hnvrram 0 0 COMRAM 1
__Lnvrram 0 0 COMRAM 1
__Heeprom_data 0 0 EEDATA 0
__Leeprom_data 0 0 EEDATA 0
__Hintsave_regs 0 0 BIGRAM 1
__Lintsave_regs 0 0 BIGRAM 1
__Hbigbss 0 0 BIGRAM 1
__Lbigbss 0 0 BIGRAM 1
__Hintret 0 0 ABS 0
__Lintret 0 0 ABS 0
__Hramtop 800 0 RAM 0
__Lramtop 800 0 RAM 0
__Hstruct 0 0 COMRAM 1
__Lstruct 0 0 COMRAM 1
__Hbigdata 0 0 BIGRAM 1
__Lbigdata 0 0 BIGRAM 1
__Hmediumconst 0 0 MEDIUMCONST 0
__Lmediumconst 0 0 MEDIUMCONST 0
__Hfarbss 0 0 FARRAM 0
__Lfarbss 0 0 FARRAM 0
__Hintcode 0 0 CODE 0
__Lintcode 0 0 CODE 0
__Hfardata 0 0 FARRAM 0
__Lfardata 0 0 FARRAM 0
__Habs1 0 0 ABS 0
__Labs1 0 0 ABS 0
__CFG_EBTR0$OFF 0 0 ABS 0
__HnvFARRAM 0 0 FARRAM 0
__LnvFARRAM 0 0 FARRAM 0
__CFG_EBTR1$OFF 0 0 ABS 0
__CFG_PBADEN$OFF 0 0 ABS 0
__CFG_EBTR2$OFF 0 0 ABS 0
__Hdata 0 0 ABS 0
__Ldata 0 0 ABS 0
__CFG_EBTR3$OFF 0 0 ABS 0
stackhi 7FF 0 ABS 0
Delay@ValorTimer0 1 0 COMRAM 1
__CFG_CPUDIV$OSC1_PLL2 0 0 ABS 0
__Htemp 0 0 COMRAM 1
__Ltemp 0 0 COMRAM 1
stacklo 60 0 ABS 0
__Hrbit 0 0 COMRAM 1
__Lrbit 0 0 COMRAM 1
__CFG_BOR$ON 0 0 ABS 0
__Hinit 4 0 CODE 0
__Linit 0 0 CODE 0
__Hintcodelo 0 0 CODE 0
__Lintcodelo 0 0 CODE 0
__Hrbss 0 0 COMRAM 1
__end_of_main 8000 0 CODE 0
__Lrbss 0 0 COMRAM 1
__Htext 0 0 ABS 0
__Ltext 0 0 ABS 0
__CFG_CCP2MX$ON 0 0 ABS 0
end_of_initialization 7F9E 0 CODE 0
__CFG_USBDIV$1 0 0 ABS 0
__CFG_VREGEN$OFF 0 0 ABS 0
__CFG_PLLDIV$1 0 0 ABS 0
_TRISBbits F93 0 ABS 0
_PORTBbits F81 0 ABS 0
_T0CONbits FD5 0 ABS 0
__size_of_SetUp 0 0 ABS 0
__Hibigdata 0 0 CODE 0
__Libigdata 0 0 CODE 0
__Hifardata 0 0 CODE 0
__Lifardata 0 0 CODE 0
__Hbank0 0 0 ABS 0
__Lbank0 0 0 ABS 0
__Hbank1 0 0 ABS 0
__Lbank1 0 0 ABS 0
__Hbank2 0 0 ABS 0
__Lbank2 0 0 ABS 0
__Hbank3 0 0 ABS 0
__Lbank3 0 0 ABS 0
__Hbank4 0 0 ABS 0
__Lbank4 0 0 ABS 0
__Hbank5 0 0 ABS 0
__Lbank5 0 0 ABS 0
__Hpowerup 0 0 CODE 0
__Lpowerup 0 0 CODE 0
__Hbank6 0 0 ABS 0
__Lbank6 0 0 ABS 0
__Hbank7 0 0 ABS 0
__Lbank7 0 0 ABS 0
__Htext0 0 0 ABS 0
__Ltext0 0 0 ABS 0
__Htext1 0 0 ABS 0
__Ltext1 0 0 ABS 0
__ptext0 7FDA 0 CODE 0
__Htext2 0 0 ABS 0
__Ltext2 0 0 ABS 0
__ptext1 7FB4 0 CODE 0
__Htext3 0 0 ABS 0
__Ltext3 0 0 ABS 0
__ptext2 7FC6 0 CODE 0
__ptext3 7FA4 0 CODE 0
__Hclrtext 0 0 ABS 0
__Lclrtext 0 0 ABS 0
__end_of__initialization 7F9E 0 CODE 0
___rparam_used 1 0 ABS 0
__size_of_Delay 0 0 ABS 0
__Hidata 0 0 CODE 0
__Lidata 0 0 CODE 0
__Hrdata 0 0 COMRAM 1
__Lrdata 0 0 COMRAM 1
__Hidloc 200008 0 IDLOC 0
__Lidloc 200000 0 IDLOC 0
__Hstack 0 0 STACK 2
__Lstack 0 0 STACK 2
__Hparam 0 0 COMRAM 1
__Lparam 0 0 COMRAM 1
__Hspace_0 30000E 0 ABS 0
__HcstackCOMRAM 0 0 ABS 0
__Lspace_0 0 0 ABS 0
__LcstackCOMRAM 0 0 ABS 0
__pcstackCOMRAM 1 0 COMRAM 1
__Hspace_1 3 0 ABS 0
__Lspace_1 0 0 ABS 0
__Hsmallconst 0 0 SMALLCONST 0
__Lsmallconst 0 0 SMALLCONST 0
__Hspace_2 0 0 ABS 0
__Lspace_2 0 0 ABS 0
__Hnvbit 0 0 COMRAM 1
__Lnvbit 0 0 COMRAM 1
__Hcinit 0 0 ABS 0
__Lcinit 0 0 ABS 0
__pcinit 7F9E 0 CODE 0
__CFG_EBTRB$OFF 0 0 ABS 0
__ramtop 800 0 RAM 0
__mediumconst 0 0 MEDIUMCONST 0
__size_of_main 0 0 ABS 0
__Hconst 0 0 CONST 0
__Lconst 0 0 CONST 0
__CFG_WRT0$OFF 0 0 ABS 0
__CFG_WRT1$OFF 0 0 ABS 0
__CFG_WRT2$OFF 0 0 ABS 0
__CFG_PWRT$ON 0 0 ABS 0
__CFG_WRT3$OFF 0 0 ABS 0
__CFG_FCMEN$OFF 0 0 ABS 0
__end_of_SetUp 7FDA 0 CODE 0
_ADCON1bits FC1 0 ABS 0
___inthi_sp 0 0 STACK 2
__CFG_BORV$3 0 0 ABS 0
___intlo_sp 0 0 STACK 2
__size_of_Timer0Initialize 0 0 ABS 0
_OSCCONbits FD3 0 ABS 0
_INTCONbits FF2 0 ABS 0
__end_of_Delay 7FB4 0 CODE 0
__CFG_CP0$OFF 0 0 ABS 0
__smallconst 0 0 SMALLCONST 0
__CFG_CP1$OFF 0 0 ABS 0
__Hreset_vec 0 0 CODE 0
__Lreset_vec 0 0 CODE 0
__CFG_CP2$OFF 0 0 ABS 0
__CFG_CP3$OFF 0 0 ABS 0
__accesstop 60 0 ABS 0
__Hintcode_body 0 0 ABS 0
__Lintcode_body 0 0 ABS 0
intlevel0 0 0 CODE 0
intlevel1 0 0 CODE 0
__CFG_WRTB$OFF 0 0 ABS 0
intlevel2 0 0 CODE 0
intlevel3 0 0 CODE 0
__CFG_WRTC$OFF 0 0 ABS 0
__CFG_WRTD$OFF 0 0 ABS 0
__CFG_CPB$OFF 0 0 ABS 0
__CFG_CPD$OFF 0 0 ABS 0
start_initialization 7F9E 0 CODE 0
__CFG_IESO$OFF 0 0 ABS 0
__CFG_MCLRE$ON 0 0 ABS 0
__initialization 7F9E 0 CODE 0
__CFG_LPT1OSC$OFF 0 0 ABS 0
__CFG_ICPRT$OFF 0 0 ABS 0
__activetblptr 0 0 ABS 0
__CFG_WDT$OFF 0 0 ABS 0
__CFG_LVP$OFF 0 0 ABS 0
%segments
reset_vec 0 3 CODE 0 0
config 300000 30000D CONFIG 300000 0
idloc 200000 200007 IDLOC 200000 0
cstackCOMRAM 1 2 COMRAM 1 1
text0 7FDA 7FFF CODE 7FDA 0
text2 7FC6 7FD9 CODE 7FC6 0
text1 7FB4 7FC5 CODE 7FB4 0
text3 7FA4 7FB3 CODE 7FA4 0
cinit 7F9E 7FA3 CODE 7F9E 0
%locals
dist/default/production\Timer0_02.X.production.obj
C:\Program Files (x86)\Microchip\xc8\v1.42\include\pic18f4550.h
C:\Users\Lenovo\AppData\Local\Temp\s4qo.
486 7F9E 0 CODE 0
488 7F9E 0 CODE 0
491 7F9E 0 CODE 0
497 7F9E 0 CODE 0
499 7F9E 0 CODE 0
500 7FA0 0 CODE 0
main.c
43 7FDA 0 CODE 0
45 7FDA 0 CODE 0
46 7FDE 0 CODE 0
51 7FE2 0 CODE 0
52 7FE4 0 CODE 0
53 7FF0 0 CODE 0
54 7FF2 0 CODE 0
48 7FFE 0 CODE 0
main.c
97 7FB4 0 CODE 0
100 7FB4 0 CODE 0
101 7FB6 0 CODE 0
102 7FB8 0 CODE 0
103 7FBA 0 CODE 0
104 7FC2 0 CODE 0
105 7FC4 0 CODE 0
main.c
82 7FC6 0 CODE 0
85 7FC6 0 CODE 0
86 7FCE 0 CODE 0
87 7FD6 0 CODE 0
main.c
65 7FA4 0 CODE 0
67 7FA4 0 CODE 0
69 7FA6 0 CODE 0
70 7FAA 0 CODE 0
72 7FAE 0 CODE 0
