__CFG_XINST$OFF 0 0 ABS 0
__S0 30000E 0 ABS 0
__S1 2 0 ABS 0
__S2 0 0 ABS 0
__Hintentry 0 0 ABS 0
__Lintentry 0 0 ABS 0
_main 1FFCC 0 CODE 0
___sp 0 0 STACK 2
start 0 0 CODE 0
__Hirdata 0 0 CODE 0
__Lirdata 0 0 CODE 0
__HRAM 0 0 ABS 0
__LRAM 1 0 ABS 0
__CFG_WDTPS$32768 0 0 ABS 0
__Hconfig 30000E 0 CONFIG 0
__Lconfig 300000 0 CONFIG 0
__Hbigram 0 0 ABS 0
__Lbigram 0 0 ABS 0
__Hrparam 0 0 COMRAM 1
__Lrparam 0 0 COMRAM 1
__Hram 0 0 ABS 0
__Lram 0 0 ABS 0
__Hcomram 0 0 ABS 0
__Lcomram 0 0 ABS 0
__Hsfr 0 0 ABS 0
__Lsfr 0 0 ABS 0
__Hbss 0 0 RAM 1
__CFG_STVREN$ON 0 0 ABS 0
__Lbss 0 0 RAM 1
___param_bank 0 0 ABS 0
__Hnvrram 0 0 COMRAM 1
__Lnvrram 0 0 COMRAM 1
__Heeprom_data 0 0 EEDATA 0
__Leeprom_data 0 0 EEDATA 0
_LATAbits F89 0 ABS 0
_LATBbits F8A 0 ABS 0
_LATDbits F8C 0 ABS 0
__Hintsave_regs 0 0 BIGRAM 1
__Lintsave_regs 0 0 BIGRAM 1
__Hbigbss 0 0 BIGRAM 1
__Lbigbss 0 0 BIGRAM 1
__Hintret 0 0 ABS 0
__Lintret 0 0 ABS 0
__Hramtop 1000 0 RAM 0
__Lramtop 1000 0 RAM 0
__Hstruct 0 0 COMRAM 1
__Lstruct 0 0 COMRAM 1
__Hbigdata 0 0 BIGRAM 1
__Lbigdata 0 0 BIGRAM 1
__Hmediumconst 0 0 MEDIUMCONST 0
__Lmediumconst 0 0 MEDIUMCONST 0
__Hfarbss 0 0 FARRAM 0
__Lfarbss 0 0 FARRAM 0
__Hintcode 0 0 CODE 0
__Lintcode 0 0 CODE 0
__Hfardata 0 0 FARRAM 0
__Lfardata 0 0 FARRAM 0
__Habs1 0 0 ABS 0
__Labs1 0 0 ABS 0
__CFG_EBTR0$OFF 0 0 ABS 0
__HnvFARRAM 0 0 FARRAM 0
__LnvFARRAM 0 0 FARRAM 0
__CFG_EBTR1$OFF 0 0 ABS 0
__CFG_CCP2MX$PORTC 0 0 ABS 0
__CFG_EBTR2$OFF 0 0 ABS 0
__Hdata 0 0 ABS 0
__Ldata 0 0 ABS 0
__CFG_EBTR3$OFF 0 0 ABS 0
stackhi F5F 0 ABS 0
__Htemp 0 0 COMRAM 1
__Ltemp 0 0 COMRAM 1
stacklo 60 0 ABS 0
__Hrbit 0 0 COMRAM 1
__Lrbit 0 0 COMRAM 1
__Hinit 4 0 CODE 0
__CFG_EBTR4$OFF 0 0 ABS 0
__Linit 0 0 CODE 0
__Hintcodelo 0 0 CODE 0
__Lintcodelo 0 0 CODE 0
__Hrbss 0 0 COMRAM 1
__end_of_main 20000 0 CODE 0
__Lrbss 0 0 COMRAM 1
__Htext 0 0 ABS 0
__Ltext 0 0 ABS 0
__size_of_Initialize 0 0 ABS 0
__CFG_EBTR5$OFF 0 0 ABS 0
end_of_initialization 1FFAA 0 CODE 0
__CFG_EBTR6$OFF 0 0 ABS 0
__CFG_ADDRBW$ADDR20BIT 0 0 ABS 0
__CFG_EBTR7$OFF 0 0 ABS 0
_TRISAbits F92 0 ABS 0
_TRISBbits F93 0 ABS 0
_PORTAbits F80 0 ABS 0
_TRISDbits F95 0 ABS 0
_PORTBbits F81 0 ABS 0
_PORTDbits F83 0 ABS 0
__CFG_MODE$MC 0 0 ABS 0
__Hibigdata 0 0 CODE 0
__Libigdata 0 0 CODE 0
__CFG_OSC$HSPLL 0 0 ABS 0
__Hifardata 0 0 CODE 0
__Lifardata 0 0 CODE 0
__Hbank0 0 0 ABS 0
__Lbank0 0 0 ABS 0
__Hbank1 0 0 ABS 0
__Lbank1 0 0 ABS 0
__Hbank2 0 0 ABS 0
__Lbank2 0 0 ABS 0
__Hbank3 0 0 ABS 0
__Lbank3 0 0 ABS 0
__Hbank4 0 0 ABS 0
__Lbank4 0 0 ABS 0
__Hbank5 0 0 ABS 0
__Lbank5 0 0 ABS 0
__Hpowerup 0 0 CODE 0
__Lpowerup 0 0 CODE 0
__Hbank6 0 0 ABS 0
__Lbank6 0 0 ABS 0
__Hbank7 0 0 ABS 0
__Lbank7 0 0 ABS 0
__Hbank8 0 0 ABS 0
__Lbank8 0 0 ABS 0
__Htext0 0 0 ABS 0
__Ltext0 0 0 ABS 0
__Hbank9 0 0 ABS 0
__Lbank9 0 0 ABS 0
__Htext1 0 0 ABS 0
__Ltext1 0 0 ABS 0
__ptext0 1FFCC 0 CODE 0
__ptext1 1FFB0 0 CODE 0
__end_of_Initialize 1FFCC 0 CODE 0
__Hclrtext 0 0 ABS 0
__Lclrtext 0 0 ABS 0
__CFG_ECCPMX$PORTE 0 0 ABS 0
__end_of__initialization 1FFAA 0 CODE 0
___rparam_used 1 0 ABS 0
__Hidata 0 0 CODE 0
__Lidata 0 0 CODE 0
__Hrdata 0 0 COMRAM 1
__Lrdata 0 0 COMRAM 1
__Hidloc 200008 0 IDLOC 0
__Lidloc 200000 0 IDLOC 0
__Hstack 0 0 STACK 2
__Lstack 0 0 STACK 2
__Hparam 0 0 COMRAM 1
__Lparam 0 0 COMRAM 1
__Hspace_0 30000E 0 ABS 0
__HcstackCOMRAM 0 0 ABS 0
__Lspace_0 0 0 ABS 0
__LcstackCOMRAM 0 0 ABS 0
__pcstackCOMRAM 1 0 COMRAM 1
__Hspace_1 2 0 ABS 0
__Lspace_1 0 0 ABS 0
__Hsmallconst 0 0 SMALLCONST 0
__Lsmallconst 0 0 SMALLCONST 0
__Hspace_2 0 0 ABS 0
__Lspace_2 0 0 ABS 0
__Hnvbit 0 0 COMRAM 1
__Lnvbit 0 0 COMRAM 1
__Hcinit 0 0 ABS 0
__Lcinit 0 0 ABS 0
__pcinit 1FFAA 0 CODE 0
__CFG_EBTRB$OFF 0 0 ABS 0
__ramtop 1000 0 RAM 0
__mediumconst 0 0 MEDIUMCONST 0
__size_of_main 0 0 ABS 0
__Hconst 0 0 CONST 0
__Lconst 0 0 CONST 0
_Initialize 1FFB0 0 CODE 0
__CFG_WRT0$OFF 0 0 ABS 0
__CFG_WRT1$OFF 0 0 ABS 0
__CFG_WRT2$OFF 0 0 ABS 0
__Hbank10 0 0 ABS 0
__Lbank10 0 0 ABS 0
__Hbank11 0 0 ABS 0
__Lbank11 0 0 ABS 0
__CFG_PWRT$ON 0 0 ABS 0
__CFG_WRT3$OFF 0 0 ABS 0
__CFG_FCMEN$OFF 0 0 ABS 0
__Hbank12 0 0 ABS 0
__Lbank12 0 0 ABS 0
__Hbank13 0 0 ABS 0
__Lbank13 0 0 ABS 0
__CFG_WRT4$OFF 0 0 ABS 0
__Hbank14 0 0 ABS 0
__Lbank14 0 0 ABS 0
__Hbank15 0 0 ABS 0
__Lbank15 0 0 ABS 0
__CFG_WRT5$OFF 0 0 ABS 0
__CFG_WRT6$OFF 0 0 ABS 0
___extmem_base 20000 0 ABS 0
_ADCON1bits FC1 0 ABS 0
__CFG_WRT7$OFF 0 0 ABS 0
___inthi_sp 0 0 STACK 2
__CFG_DATABW$DATA16BIT 0 0 ABS 0
__CFG_BORV$3 0 0 ABS 0
___intlo_sp 0 0 STACK 2
__CFG_CP0$OFF 0 0 ABS 0
__smallconst 0 0 SMALLCONST 0
__CFG_CP1$OFF 0 0 ABS 0
__Hreset_vec 0 0 CODE 0
__Lreset_vec 0 0 CODE 0
__CFG_CP2$OFF 0 0 ABS 0
__CFG_CP3$OFF 0 0 ABS 0
__CFG_CP4$OFF 0 0 ABS 0
__CFG_CP5$OFF 0 0 ABS 0
__accesstop 60 0 ABS 0
__CFG_CP6$OFF 0 0 ABS 0
__Hintcode_body 0 0 ABS 0
__Lintcode_body 0 0 ABS 0
__CFG_CP7$OFF 0 0 ABS 0
intlevel0 0 0 CODE 0
intlevel1 0 0 CODE 0
__CFG_WRTB$OFF 0 0 ABS 0
intlevel2 0 0 CODE 0
intlevel3 0 0 CODE 0
__CFG_WRTC$OFF 0 0 ABS 0
__CFG_WRTD$OFF 0 0 ABS 0
__CFG_CPB$OFF 0 0 ABS 0
__CFG_CPD$OFF 0 0 ABS 0
start_initialization 1FFAA 0 CODE 0
__CFG_BOREN$SBORDIS 0 0 ABS 0
__CFG_BBSIZ$BB2K 0 0 ABS 0
__CFG_IESO$OFF 0 0 ABS 0
__CFG_MCLRE$ON 0 0 ABS 0
__CFG_WAIT$OFF 0 0 ABS 0
__initialization 1FFAA 0 CODE 0
__CFG_LPT1OSC$OFF 0 0 ABS 0
__activetblptr 0 0 ABS 0
__CFG_WDT$OFF 0 0 ABS 0
__CFG_LVP$OFF 0 0 ABS 0
%segments
reset_vec 0 3 CODE 0 0
config 300000 30000D CONFIG 300000 0
idloc 200000 200007 IDLOC 200000 0
cstackCOMRAM 1 1 COMRAM 1 1
text0 1FFCC 1FFFF CODE 1FFCC 0
text1 1FFB0 1FFCB CODE 1FFB0 0
cinit 1FFAA 1FFAF CODE 1FFAA 0
%locals
dist/default/production\PULSADORES_01.X.production.obj
C:\Program Files (x86)\Microchip\xc8\v1.43\include\pic18f8722.h
C:\Users\SEBASP~1\AppData\Local\Temp\s6tk.
568 1FFAA 0 CODE 0
570 1FFAA 0 CODE 0
573 1FFAA 0 CODE 0
579 1FFAA 0 CODE 0
581 1FFAA 0 CODE 0
582 1FFAC 0 CODE 0
main.c
32 1FFCC 0 CODE 0
34 1FFCC 0 CODE 0
36 1FFD0 0 CODE 0
38 1FFD0 0 CODE 0
40 1FFD6 0 CODE 0
42 1FFD6 0 CODE 0
43 1FFE4 0 CODE 0
40 1FFE4 0 CODE 0
45 1FFE8 0 CODE 0
36 1FFFE 0 CODE 0
main.c
50 1FFB0 0 CODE 0
52 1FFB0 0 CODE 0
53 1FFB2 0 CODE 0
54 1FFB4 0 CODE 0
56 1FFB6 0 CODE 0
57 1FFB8 0 CODE 0
58 1FFBA 0 CODE 0
60 1FFBC 0 CODE 0
61 1FFBE 0 CODE 0
62 1FFC0 0 CODE 0
64 1FFC2 0 CODE 0
65 1FFCA 0 CODE 0
