___lwdiv@dividend 13 0 COMRAM 1
__CFG_XINST$OFF 0 0 ABS 0
sprintf@f 21 0 COMRAM 1
_t 2F 0 COMRAM 1
___lwdiv@counter 19 0 COMRAM 1
_t1 33 0 COMRAM 1
_t2 31 0 COMRAM 1
__S0 30000E 0 ABS 0
__S1 49 0 ABS 0
__S2 0 0 ABS 0
__size_of_IntroDelay 0 0 ABS 0
_CCP4InterruptRoutine 167E 0 CODE 0
__Hintentry 0 0 ABS 0
__Lintentry 0 0 ABS 0
_aux 35 0 COMRAM 1
__size_of_Port_BBSPIInit 0 0 ABS 0
_LATD F8C 0 ABS 0
_CCP4Flag 36 0 COMRAM 1
__size_of_InterruptsManager 0 0 ABS 0
WritePort_BBSPI@port_add 17 0 COMRAM 1
__end_of_CCP4Initialize 15E2 0 CODE 0
LCDPutStr@ptr 1A 0 COMRAM 1
_main 1226 0 CODE 0
___sp 0 0 STACK 2
btemp 48 0 COMRAM 1
start E 0 CODE 0
__size_of_SendByteBBSPI 0 0 ABS 0
_TMR1H FCF 0 ABS 0
_TMR1L FCE 0 ABS 0
__end_of_Intro 157E 0 CODE 0
__size_of_TMR1Initialize 0 0 ABS 0
__Hirdata 0 0 CODE 0
__Lirdata 0 0 CODE 0
__HRAM 0 0 ABS 0
__LRAM 1 0 ABS 0
__size_of_TMR1Write 0 0 ABS 0
wtemp6 49 0 COMRAM 1
__size_of_TMR1Start 0 0 ABS 0
__CFG_WDTPS$32768 0 0 ABS 0
__Hconfig 30000E 0 CONFIG 0
__Lconfig 300000 0 CONFIG 0
?___lwmod 1A 0 COMRAM 1
__Hbigram 0 0 ABS 0
__Lbigram 0 0 ABS 0
__Hrparam 0 0 COMRAM 1
__Lrparam 0 0 COMRAM 1
__size_of_LCDInit 0 0 ABS 0
__Hram 0 0 ABS 0
__Lram 0 0 ABS 0
__Hcomram 0 0 ABS 0
__Lcomram 0 0 ABS 0
__Hsfr 0 0 ABS 0
__Lsfr 0 0 ABS 0
__Hbss 0 0 RAM 1
__CFG_STVREN$ON 0 0 ABS 0
__Lbss 0 0 RAM 1
___param_bank 0 0 ABS 0
__Hnvrram 0 0 COMRAM 1
_Intro 1550 0 CODE 0
__Lnvrram 0 0 COMRAM 1
?_sprintf 1F 0 COMRAM 1
int$flags 48 0 COMRAM 1
_PIE1bits F9D 0 ABS 0
_PIE3bits FA3 0 ABS 0
__Heeprom_data 0 0 EEDATA 0
__Leeprom_data 0 0 EEDATA 0
_PIR1bits F9E 0 ABS 0
_PIR3bits FA4 0 ABS 0
_CCPR4H F75 0 ABS 0
_Imprimir 1520 0 CODE 0
_LATAbits F89 0 ABS 0
sprintf@ap 26 0 COMRAM 1
_LATCbits F8B 0 ABS 0
__Hintsave_regs 0 0 BIGRAM 1
__Lintsave_regs 0 0 BIGRAM 1
_LATFbits F8E 0 ABS 0
_LATGbits F8F 0 ABS 0
_RCONbits FD0 0 ABS 0
_CCPR4L F74 0 ABS 0
__Hbigbss 0 0 BIGRAM 1
__Lbigbss 0 0 BIGRAM 1
__Hintret 0 0 ABS 0
__Lintret 0 0 ABS 0
__Hramtop 1000 0 RAM 0
__Lramtop 1000 0 RAM 0
__Hstruct 0 0 COMRAM 1
__Lstruct 0 0 COMRAM 1
__Hbigdata 0 0 BIGRAM 1
__Lbigdata 0 0 BIGRAM 1
__Hmediumconst 0 0 MEDIUMCONST 0
__Lmediumconst 0 0 MEDIUMCONST 0
?___lwdiv 13 0 COMRAM 1
__Hfarbss 0 0 FARRAM 0
__Lfarbss 0 0 FARRAM 0
__Hintcode E 0 CODE 0
__Lintcode 8 0 CODE 0
__Hfardata 0 0 FARRAM 0
__Lfardata 0 0 FARRAM 0
__pintcode 8 0 CODE 0
__size_of_Intro 0 0 ABS 0
__Habs1 0 0 ABS 0
__Labs1 0 0 ABS 0
__CFG_EBTR0$OFF 0 0 ABS 0
__HnvFARRAM 0 0 FARRAM 0
__LnvFARRAM 0 0 FARRAM 0
__CFG_EBTR1$OFF 0 0 ABS 0
_Timer1Flag 37 0 COMRAM 1
SendByteBBSPI@bitcount 14 0 COMRAM 1
__CFG_CCP2MX$PORTC 0 0 ABS 0
_TMR1Write 15E2 0 CODE 0
__CFG_EBTR2$OFF 0 0 ABS 0
IntroDelay@i 15 0 COMRAM 1
__end_of_dpowers 100B 0 SMALLCONST 0
_SendByteBBSPI 148E 0 CODE 0
__end_of_LCDPutStr 143C 0 CODE 0
__end_of_LCDPutChar 1320 0 CODE 0
__Hdata 0 0 ABS 0
__Ldata 0 0 ABS 0
__CFG_EBTR3$OFF 0 0 ABS 0
Port_BBSPIInit@port_dir 16 0 COMRAM 1
stackhi F5F 0 ABS 0
sprintf@sp 1F 0 COMRAM 1
__end_of_TMR1Initialize 161A 0 CODE 0
__end_of_TMR1Start 168A 0 CODE 0
__Htemp 49 0 COMRAM 1
__Ltemp 48 0 COMRAM 1
stacklo 60 0 ABS 0
__Hrbit 0 0 COMRAM 1
__Lrbit 0 0 COMRAM 1
__size_of_CCP4InterruptRoutine 0 0 ABS 0
__Hinit 12 0 CODE 0
__CFG_EBTR4$OFF 0 0 ABS 0
__Linit E 0 CODE 0
__Hintcodelo E 0 CODE 0
__Lintcodelo E 0 CODE 0
__Hrbss 0 0 COMRAM 1
__end_of_main 12BA 0 CODE 0
__Lrbss 0 0 COMRAM 1
__Htext 0 0 ABS 0
__Ltext 0 0 ABS 0
__CFG_EBTR5$OFF 0 0 ABS 0
end_of_initialization 165A 0 CODE 0
__size_of_LCDPutStr 0 0 ABS 0
__CFG_EBTR6$OFF 0 0 ABS 0
__CFG_ADDRBW$ADDR20BIT 0 0 ABS 0
__end_of_SendByteBBSPI 14DE 0 CODE 0
__size_of_LCDPutChar 0 0 ABS 0
__size_of_LCDPutInst 0 0 ABS 0
_LCDPutStr 13E6 0 CODE 0
__CFG_EBTR7$OFF 0 0 ABS 0
__end_of_LCDInit 13E6 0 CODE 0
_TRISAbits F92 0 ABS 0
_TRISBbits F93 0 ABS 0
_TRISCbits F94 0 ABS 0
_PORTAbits F80 0 ABS 0
_TRISDbits F95 0 ABS 0
_PORTBbits F81 0 ABS 0
_TRISFbits F97 0 ABS 0
_PORTDbits F83 0 ABS 0
_T1CONbits FCD 0 ABS 0
_T3CONbits FB1 0 ABS 0
_TRISGbits F98 0 ABS 0
_TMR1Start 1686 0 CODE 0
__CFG_MODE$MC 0 0 ABS 0
__end_of_LCDPutInst 1386 0 CODE 0
__Hibigdata 0 0 CODE 0
__Libigdata 0 0 CODE 0
__CFG_OSC$HSPLL 0 0 ABS 0
__Hifardata 0 0 CODE 0
__Lifardata 0 0 CODE 0
__Hbank0 0 0 ABS 0
__Lbank0 0 0 ABS 0
__Hbank1 0 0 ABS 0
__Lbank1 0 0 ABS 0
__Hbank2 0 0 ABS 0
__Lbank2 0 0 ABS 0
__Hbank3 0 0 ABS 0
__Lbank3 0 0 ABS 0
__Hbank4 0 0 ABS 0
__Lbank4 0 0 ABS 0
__Hbank5 0 0 ABS 0
__Lbank5 0 0 ABS 0
__Hpowerup E 0 CODE 0
__Lpowerup E 0 CODE 0
__Hbank6 0 0 ABS 0
__Lbank6 0 0 ABS 0
__end_of_InterruptInitialize 167E 0 CODE 0
__Hbank7 0 0 ABS 0
__Lbank7 0 0 ABS 0
__Hbank8 0 0 ABS 0
__Lbank8 0 0 ABS 0
__Htext0 0 0 ABS 0
__Ltext0 0 0 ABS 0
__Hbank9 0 0 ABS 0
__Lbank9 0 0 ABS 0
__Htext1 0 0 ABS 0
__Ltext1 0 0 ABS 0
__ptext0 1226 0 CODE 0
__Htext2 0 0 ABS 0
__Ltext2 0 0 ABS 0
__ptext1 15E2 0 CODE 0
__Htext3 0 0 ABS 0
__Ltext3 0 0 ABS 0
__ptext2 15A6 0 CODE 0
__Htext4 0 0 ABS 0
__Ltext4 0 0 ABS 0
__ptext3 15FE 0 CODE 0
__Htext5 0 0 ABS 0
__Ltext5 0 0 ABS 0
__ptext4 1686 0 CODE 0
__end_of_CCP4InterruptRoutine 1686 0 CODE 0
__Htext6 0 0 ABS 0
__Ltext6 0 0 ABS 0
__ptext5 15C4 0 CODE 0
__Htext7 0 0 ABS 0
__Ltext7 0 0 ABS 0
__ptext6 1550 0 CODE 0
__HbssCOMRAM 0 0 ABS 0
__LbssCOMRAM 0 0 ABS 0
__Htext8 0 0 ABS 0
__Ltext8 0 0 ABS 0
__ptext7 1386 0 CODE 0
__pbssCOMRAM 2F 0 COMRAM 1
__Htext9 0 0 ABS 0
__Ltext9 0 0 ABS 0
__ptext8 161A 0 CODE 0
sprintf@val 2A 0 COMRAM 1
__ptext9 1664 0 CODE 0
__Hclrtext 0 0 ABS 0
__Lclrtext 0 0 ABS 0
TMR1Write@ValTMR1 13 0 COMRAM 1
__size_of_WritePort_BBSPI 0 0 ABS 0
__CFG_ECCPMX$PORTE 0 0 ABS 0
__end_of__initialization 165A 0 CODE 0
_CCP4CONbits F73 0 ABS 0
___rparam_used 1 0 ABS 0
__end_of___lwdiv 148E 0 CODE 0
__end_of_InterruptsManager 1226 0 CODE 0
_LCDPutChar 12BA 0 CODE 0
WritePort_BBSPI@a 16 0 COMRAM 1
__size_of_InitBBSPI 0 0 ABS 0
__Hidata 0 0 CODE 0
__Lidata 0 0 CODE 0
__Hrdata 0 0 COMRAM 1
__Lrdata 0 0 COMRAM 1
__Hidloc 200008 0 IDLOC 0
__Lidloc 200000 0 IDLOC 0
__Hstack 0 0 STACK 2
__Lstack 0 0 STACK 2
int_func 118A 0 CODE 0
___lwmod 14DE 0 CODE 0
__Hparam 0 0 COMRAM 1
__Lparam 0 0 COMRAM 1
__Hspace_0 30000E 0 ABS 0
__HcstackCOMRAM 0 0 ABS 0
__Lspace_0 0 0 ABS 0
__LcstackCOMRAM 0 0 ABS 0
__pcstackCOMRAM 1 0 COMRAM 1
_LCDInit 1386 0 CODE 0
_sprintf 102E 0 CODE 0
__Hspace_1 49 0 ABS 0
__Lspace_1 0 0 ABS 0
__Hsmallconst 102E 0 SMALLCONST 0
__Lsmallconst 1000 0 SMALLCONST 0
__psmallconst 1000 0 SMALLCONST 0
__Hspace_2 0 0 ABS 0
__Lspace_2 0 0 ABS 0
__Hnvbit 0 0 COMRAM 1
__Lnvbit 0 0 COMRAM 1
__Hcinit 0 0 ABS 0
__Lcinit 0 0 ABS 0
__pcinit 164E 0 CODE 0
__CFG_EBTRB$OFF 0 0 ABS 0
__ramtop 1000 0 RAM 0
__mediumconst 0 0 MEDIUMCONST 0
___lwdiv 143C 0 CODE 0
__size_of_main 0 0 ABS 0
_dpowers 1001 0 SMALLCONST 0
__Hconst 0 0 CONST 0
__end_of_WritePort_BBSPI 164E 0 CODE 0
__Lconst 0 0 CONST 0
__end_of_Imprimir 1550 0 CODE 0
_InterruptInitialize 1676 0 CODE 0
__end_of_sprintf 118A 0 CODE 0
_InitBBSPI 1664 0 CODE 0
__CFG_WRT0$OFF 0 0 ABS 0
__size_of_CCP4Initialize 0 0 ABS 0
__CFG_WRT1$OFF 0 0 ABS 0
__size_of___lwdiv 0 0 ABS 0
__CFG_WRT2$OFF 0 0 ABS 0
__Hbank10 0 0 ABS 0
__Lbank10 0 0 ABS 0
__Hbank11 0 0 ABS 0
__Lbank11 0 0 ABS 0
__CFG_PWRT$ON 0 0 ABS 0
__CFG_WRT3$OFF 0 0 ABS 0
__CFG_FCMEN$OFF 0 0 ABS 0
__Hbank12 0 0 ABS 0
__Lbank12 0 0 ABS 0
sprintf@flag 28 0 COMRAM 1
__Hbank13 0 0 ABS 0
__Lbank13 0 0 ABS 0
__CFG_WRT4$OFF 0 0 ABS 0
__Hbank14 0 0 ABS 0
__Lbank14 0 0 ABS 0
__Htext10 0 0 ABS 0
__Ltext10 0 0 ABS 0
__Htext20 0 0 ABS 0
__Ltext20 0 0 ABS 0
__ptext10 157E 0 CODE 0
__Hbank15 0 0 ABS 0
__Lbank15 0 0 ABS 0
__Htext11 0 0 ABS 0
__Ltext11 0 0 ABS 0
__ptext20 148E 0 CODE 0
__CFG_WRT5$OFF 0 0 ABS 0
__ptext11 1676 0 CODE 0
__Htext12 0 0 ABS 0
__Ltext12 0 0 ABS 0
__Htext22 0 0 ABS 0
__Ltext22 0 0 ABS 0
__ptext12 1520 0 CODE 0
__Htext13 0 0 ABS 0
__Ltext13 0 0 ABS 0
__ptext22 167E 0 CODE 0
__CFG_WRT6$OFF 0 0 ABS 0
__ptext13 102E 0 CODE 0
__Htext14 0 0 ABS 0
___extmem_base 20000 0 ABS 0
__Ltext14 0 0 ABS 0
_ADCON1bits FC1 0 ABS 0
sprintf@prec 29 0 COMRAM 1
__ptext14 14DE 0 CODE 0
__Htext15 0 0 ABS 0
__Ltext15 0 0 ABS 0
__CFG_WRT7$OFF 0 0 ABS 0
__ptext15 143C 0 CODE 0
___inthi_sp 0 0 STACK 2
__Htext16 0 0 ABS 0
__Ltext16 0 0 ABS 0
__ptext16 13E6 0 CODE 0
__CFG_DATABW$DATA16BIT 0 0 ABS 0
__Htext17 0 0 ABS 0
__Ltext17 0 0 ABS 0
__ptext17 12BA 0 CODE 0
_IntroDelay 157E 0 CODE 0
__Htext18 0 0 ABS 0
__end_of___lwmod 1520 0 CODE 0
__Ltext18 0 0 ABS 0
___lwmod@divisor 1C 0 COMRAM 1
__ptext18 1320 0 CODE 0
__Htext19 0 0 ABS 0
__Ltext19 0 0 ABS 0
_InterruptsManager 8 0 CODE 0
__ptext19 1634 0 CODE 0
__CFG_BORV$3 0 0 ABS 0
___intlo_sp 0 0 STACK 2
__size_of_Imprimir 0 0 ABS 0
_INTCONbits FF2 0 ABS 0
_CCP4Initialize 15C4 0 CODE 0
_TMR1Initialize 15FE 0 CODE 0
__end_of_SysInitialize 15C4 0 CODE 0
___lwdiv@divisor 15 0 COMRAM 1
__end_of_TMR1Write 15FE 0 CODE 0
__CFG_CP0$OFF 0 0 ABS 0
__smallconst 1000 0 SMALLCONST 0
__CFG_CP1$OFF 0 0 ABS 0
_TextoLCD 38 0 COMRAM 1
__Hreset_vec 4 0 CODE 0
__Lreset_vec 0 0 CODE 0
__CFG_CP2$OFF 0 0 ABS 0
_LCDPutInst 1320 0 CODE 0
__CFG_CP3$OFF 0 0 ABS 0
__CFG_CP4$OFF 0 0 ABS 0
__CFG_CP5$OFF 0 0 ABS 0
__accesstop 60 0 ABS 0
__CFG_CP6$OFF 0 0 ABS 0
__Hintcode_body 0 0 ABS 0
__Lintcode_body 0 0 ABS 0
__CFG_CP7$OFF 0 0 ABS 0
__pintcode_body 118A 0 CODE 0
intlevel0 0 0 CODE 0
LCDPutChar@ch 19 0 COMRAM 1
intlevel1 0 0 CODE 0
_Port_BBSPIInit 161A 0 CODE 0
__CFG_WRTB$OFF 0 0 ABS 0
intlevel2 0 0 CODE 0
intlevel3 0 0 CODE 0
__CFG_WRTC$OFF 0 0 ABS 0
SendByteBBSPI@output 13 0 COMRAM 1
__CFG_WRTD$OFF 0 0 ABS 0
__end_of_InitBBSPI 1676 0 CODE 0
__size_of_InterruptInitialize 0 0 ABS 0
__size_of___lwmod 0 0 ABS 0
__CFG_CPB$OFF 0 0 ABS 0
_SysInitialize 15A6 0 CODE 0
__CFG_CPD$OFF 0 0 ABS 0
start_initialization 164E 0 CODE 0
___lwdiv@quotient 17 0 COMRAM 1
__CFG_BOREN$SBORDIS 0 0 ABS 0
__CFG_BBSIZ$BB2K 0 0 ABS 0
__CFG_IESO$OFF 0 0 ABS 0
__end_of_Port_BBSPIInit 1634 0 CODE 0
__CFG_MCLRE$ON 0 0 ABS 0
__CFG_WAIT$OFF 0 0 ABS 0
__size_of_SysInitialize 0 0 ABS 0
__size_of_sprintf 0 0 ABS 0
__initialization 164E 0 CODE 0
SendByteBBSPI@input 15 0 COMRAM 1
__CFG_LPT1OSC$OFF 0 0 ABS 0
___lwmod@dividend 1A 0 COMRAM 1
__activetblptr 3 0 ABS 0
___lwmod@counter 1E 0 COMRAM 1
LCDPutInst@ch 19 0 COMRAM 1
__CFG_WDT$OFF 0 0 ABS 0
_WritePort_BBSPI 1634 0 CODE 0
__CFG_LVP$OFF 0 0 ABS 0
sprintf@c 2C 0 COMRAM 1
__end_of_IntroDelay 15A6 0 CODE 0
%segments
reset_vec 0 3 CODE 0 0
intcode 8 11 CODE 8 0
smallconst 1000 102D SMALLCONST 1000 0
config 300000 30000D CONFIG 300000 0
idloc 200000 200007 IDLOC 200000 0
cstackCOMRAM 1 48 COMRAM 1 1
text13 102E 1689 CODE 102E 0
%locals
dist/default/production\CCP_01_PIC18F8722.X.production.obj
C:\Program Files (x86)\Microchip\xc8\v1.43\include\pic18f8722.h
C:\Users\Lenovo\AppData\Local\Temp\s4v8.
2677 164E 0 CODE 0
2679 164E 0 CODE 0
2682 164E 0 CODE 0
2712 164E 0 CODE 0
2713 1652 0 CODE 0
2714 1654 0 CODE 0
2715 1654 0 CODE 0
2716 1656 0 CODE 0
2717 1658 0 CODE 0
2723 165A 0 CODE 0
2725 165A 0 CODE 0
2726 165C 0 CODE 0
2727 165E 0 CODE 0
2728 1660 0 CODE 0
main.c
29 1226 0 CODE 0
31 1226 0 CODE 0
32 122A 0 CODE 0
33 122E 0 CODE 0
34 1232 0 CODE 0
36 1238 0 CODE 0
38 1238 0 CODE 0
40 123E 0 CODE 0
41 1242 0 CODE 0
43 1258 0 CODE 0
44 125E 0 CODE 0
45 1264 0 CODE 0
47 126C 0 CODE 0
49 1272 0 CODE 0
50 127A 0 CODE 0
51 127E 0 CODE 0
52 1280 0 CODE 0
54 1280 0 CODE 0
55 1288 0 CODE 0
56 12A4 0 CODE 0
57 12A8 0 CODE 0
58 12AC 0 CODE 0
36 12B8 0 CODE 0
tmr1.c
95 15E2 0 CODE 0
97 15E2 0 CODE 0
100 15E6 0 CODE 0
103 15E8 0 CODE 0
104 15EC 0 CODE 0
107 15F0 0 CODE 0
108 15F2 0 CODE 0
109 15F4 0 CODE 0
112 15F4 0 CODE 0
113 15F8 0 CODE 0
SystemInitialize.c
4 15A6 0 CODE 0
7 15A6 0 CODE 0
8 15AE 0 CODE 0
9 15B0 0 CODE 0
11 15B2 0 CODE 0
12 15B6 0 CODE 0
13 15B8 0 CODE 0
15 15BA 0 CODE 0
16 15BE 0 CODE 0
tmr1.c
8 15FE 0 CODE 0
14 15FE 0 CODE 0
20 1600 0 CODE 0
26 1602 0 CODE 0
34 1604 0 CODE 0
40 1608 0 CODE 0
46 160A 0 CODE 0
49 160C 0 CODE 0
50 1610 0 CODE 0
52 1614 0 CODE 0
53 1618 0 CODE 0
tmr1.c
59 1686 0 CODE 0
61 1686 0 CODE 0
62 1688 0 CODE 0
CCP4.c
5 15C4 0 CODE 0
13 15C4 0 CODE 0
14 15C6 0 CODE 0
17 15C8 0 CODE 0
34 15D0 0 CODE 0
37 15D8 0 CODE 0
43 15DA 0 CODE 0
46 15DC 0 CODE 0
47 15DE 0 CODE 0
main.c
64 1550 0 CODE 0
67 1550 0 CODE 0
69 1554 0 CODE 0
70 155A 0 CODE 0
71 1566 0 CODE 0
72 156C 0 CODE 0
74 1578 0 CODE 0
BBSPI_LCD.c
45 1386 0 CODE 0
47 1386 0 CODE 0
48 138A 0 CODE 0
49 138C 0 CODE 0
50 138E 0 CODE 0
51 139E 0 CODE 0
52 13A0 0 CODE 0
53 13A6 0 CODE 0
54 13AC 0 CODE 0
55 13B6 0 CODE 0
56 13C6 0 CODE 0
57 13CC 0 CODE 0
58 13D2 0 CODE 0
59 13D8 0 CODE 0
60 13DE 0 CODE 0
61 13E4 0 CODE 0
BBSPI_LCD.c
123 161A 0 CODE 0
128 161C 0 CODE 0
129 161E 0 CODE 0
130 1624 0 CODE 0
131 162A 0 CODE 0
132 1630 0 CODE 0
133 1632 0 CODE 0
BBSPI_LCD.c
70 1664 0 CODE 0
72 1664 0 CODE 0
73 1666 0 CODE 0
74 1668 0 CODE 0
75 166A 0 CODE 0
77 166C 0 CODE 0
78 166E 0 CODE 0
79 1670 0 CODE 0
80 1672 0 CODE 0
81 1674 0 CODE 0
main.c
89 157E 0 CODE 0
92 157E 0 CODE 0
93 158A 0 CODE 0
92 15A2 0 CODE 0
InterruptManager.c
4 1676 0 CODE 0
10 1676 0 CODE 0
12 1678 0 CODE 0
13 167A 0 CODE 0
14 167C 0 CODE 0
main.c
79 1520 0 CODE 0
81 1520 0 CODE 0
82 1526 0 CODE 0
83 1542 0 CODE 0
C:\Program Files (x86)\Microchip\xc8\v1.43\sources\common\doprnt.c
492 102E 0 CODE 0
533 102E 0 CODE 0
536 1036 0 CODE 0
538 1038 0 CODE 0
541 1040 0 CODE 0
542 1050 0 CODE 0
543 1052 0 CODE 0
548 1052 0 CODE 0
635 1056 0 CODE 0
822 1080 0 CODE 0
1259 1080 0 CODE 0
1261 1098 0 CODE 0
1262 109C 0 CODE 0
1263 10A0 0 CODE 0
1264 10A8 0 CODE 0
1305 10A8 0 CODE 0
1306 10B4 0 CODE 0
1305 10DA 0 CODE 0
1438 10DE 0 CODE 0
1439 10EA 0 CODE 0
1472 10FA 0 CODE 0
1474 10FE 0 CODE 0
1489 1100 0 CODE 0
1524 1148 0 CODE 0
1525 1158 0 CODE 0
1474 1158 0 CODE 0
536 1160 0 CODE 0
1538 117C 0 CODE 0
C:\Program Files (x86)\Microchip\xc8\v1.43\sources\common\lwmod.c
8 14DE 0 CODE 0
13 14DE 0 CODE 0
14 14E6 0 CODE 0
15 14EA 0 CODE 0
16 14EC 0 CODE 0
17 14F2 0 CODE 0
18 14F4 0 CODE 0
15 14F4 0 CODE 0
20 14F8 0 CODE 0
21 1504 0 CODE 0
22 150C 0 CODE 0
23 1512 0 CODE 0
25 1516 0 CODE 0
26 151E 0 CODE 0
C:\Program Files (x86)\Microchip\xc8\v1.43\sources\common\lwdiv.c
8 143C 0 CODE 0
14 143C 0 CODE 0
15 1444 0 CODE 0
16 144C 0 CODE 0
17 1450 0 CODE 0
18 1452 0 CODE 0
19 1458 0 CODE 0
20 145A 0 CODE 0
17 145A 0 CODE 0
22 145E 0 CODE 0
23 1464 0 CODE 0
24 1470 0 CODE 0
25 1478 0 CODE 0
26 147A 0 CODE 0
27 147A 0 CODE 0
28 1480 0 CODE 0
30 1484 0 CODE 0
31 148C 0 CODE 0
BBSPI_LCD.c
198 13E6 0 CODE 0
200 13E6 0 CODE 0
BBSPI_LCD.c
160 12BA 0 CODE 0
162 12BC 0 CODE 0
163 12CC 0 CODE 0
164 12D6 0 CODE 0
165 12E4 0 CODE 0
166 12EE 0 CODE 0
167 12FC 0 CODE 0
168 1306 0 CODE 0
169 1314 0 CODE 0
170 131E 0 CODE 0
BBSPI_LCD.c
179 1320 0 CODE 0
181 1322 0 CODE 0
182 1332 0 CODE 0
183 133C 0 CODE 0
184 134A 0 CODE 0
185 1354 0 CODE 0
186 1362 0 CODE 0
187 136C 0 CODE 0
188 137A 0 CODE 0
189 1384 0 CODE 0
BBSPI_LCD.c
144 1634 0 CODE 0
146 1636 0 CODE 0
147 1638 0 CODE 0
148 163E 0 CODE 0
149 1644 0 CODE 0
150 164A 0 CODE 0
151 164C 0 CODE 0
BBSPI_LCD.c
91 148E 0 CODE 0
94 1490 0 CODE 0
96 1494 0 CODE 0
97 14A0 0 CODE 0
99 14A0 0 CODE 0
100 14A4 0 CODE 0
101 14A8 0 CODE 0
102 14A8 0 CODE 0
104 14AA 0 CODE 0
105 14AE 0 CODE 0
106 14B4 0 CODE 0
107 14B4 0 CODE 0
108 14BA 0 CODE 0
109 14BC 0 CODE 0
110 14C8 0 CODE 0
111 14D4 0 CODE 0
112 14D6 0 CODE 0
96 14DA 0 CODE 0
BBSPI_LCD.c
114 8 0 CODE 0
InterruptManager.c
16 8 0 CODE 0
InterruptManager.c
16 118A 0 CODE 0
18 11D4 0 CODE 0
20 11D6 0 CODE 0
22 11DA 0 CODE 0
CCP4.c
52 167E 0 CODE 0
55 167E 0 CODE 0
61 1680 0 CODE 0
