__CFG_XINST$OFF 0 0 ABS 0
__S0 30000E 0 ABS 0
__S1 1A 0 ABS 0
__S2 0 0 ABS 0
__Hintentry 0 0 ABS 0
__Lintentry 0 0 ABS 0
_main 7ECE 0 CODE 0
___sp 0 0 STACK 2
_Keys 1 0 COMRAM 1
start 0 0 CODE 0
_TRISB F93 0 ABS 0
_TRISD F95 0 ABS 0
_PORTB F81 0 ABS 0
__Hirdata 0 0 CODE 0
__Lirdata 0 0 CODE 0
__HRAM 0 0 ABS 0
_PORTD F83 0 ABS 0
__LRAM 1 0 ABS 0
__CFG_WDTPS$32768 0 0 ABS 0
__Hconfig 30000E 0 CONFIG 0
__Lconfig 300000 0 CONFIG 0
__Hbigram 0 0 ABS 0
__Lbigram 0 0 ABS 0
__Hrparam 0 0 COMRAM 1
__Lrparam 0 0 COMRAM 1
__Hram 0 0 ABS 0
_SetUp 7EEE 0 CODE 0
__Lram 0 0 ABS 0
__Hcomram 0 0 ABS 0
__Lcomram 0 0 ABS 0
__Hsfr 0 0 ABS 0
__Lsfr 0 0 ABS 0
__Hbss 0 0 RAM 1
__CFG_STVREN$ON 0 0 ABS 0
__Lbss 0 0 RAM 1
___param_bank 0 0 ABS 0
__Hnvrram 0 0 COMRAM 1
__Lnvrram 0 0 COMRAM 1
GetCol@Col 12 0 COMRAM 1
GetKey@Col 15 0 COMRAM 1
__Heeprom_data 0 0 EEDATA 0
__Leeprom_data 0 0 EEDATA 0
__Hintsave_regs 0 0 BIGRAM 1
__Lintsave_regs 0 0 BIGRAM 1
__Hbigbss 0 0 BIGRAM 1
__Lbigbss 0 0 BIGRAM 1
__Hintret 0 0 ABS 0
__Lintret 0 0 ABS 0
__Hramtop 800 0 RAM 0
__Lramtop 800 0 RAM 0
__Hstruct 0 0 COMRAM 1
__Lstruct 0 0 COMRAM 1
__Hbigdata 0 0 BIGRAM 1
__Lbigdata 0 0 BIGRAM 1
__Hmediumconst 0 0 MEDIUMCONST 0
__Lmediumconst 0 0 MEDIUMCONST 0
__Hfarbss 0 0 FARRAM 0
__Lfarbss 0 0 FARRAM 0
__Hintcode 0 0 CODE 0
__Lintcode 0 0 CODE 0
__Hfardata 0 0 FARRAM 0
__Lfardata 0 0 FARRAM 0
__Habs1 0 0 ABS 0
__Labs1 0 0 ABS 0
__CFG_EBTR0$OFF 0 0 ABS 0
__HnvFARRAM 0 0 FARRAM 0
__LnvFARRAM 0 0 FARRAM 0
__HnvCOMRAM 0 0 ABS 0
__LnvCOMRAM 0 0 ABS 0
__pnvCOMRAM 19 0 COMRAM 1
__CFG_EBTR1$OFF 0 0 ABS 0
__CFG_PBADEN$OFF 0 0 ABS 0
__CFG_EBTR2$OFF 0 0 ABS 0
__Hdata 0 0 ABS 0
__Ldata 0 0 ABS 0
__CFG_EBTR3$OFF 0 0 ABS 0
_GetCol 7F30 0 CODE 0
stackhi 7FF 0 ABS 0
__CFG_CPUDIV$OSC1_PLL2 0 0 ABS 0
_GetKey 7F64 0 CODE 0
__Htemp 0 0 COMRAM 1
__Ltemp 0 0 COMRAM 1
stacklo 60 0 ABS 0
__Hrbit 0 0 COMRAM 1
__Lrbit 0 0 COMRAM 1
__CFG_BOR$ON 0 0 ABS 0
__Hinit 4 0 CODE 0
__Linit 0 0 CODE 0
__Hintcodelo 0 0 CODE 0
__Lintcodelo 0 0 CODE 0
__Hrbss 0 0 COMRAM 1
__end_of_main 7EDE 0 CODE 0
__Lrbss 0 0 COMRAM 1
__Htext 0 0 ABS 0
__Ltext 0 0 ABS 0
__CFG_CCP2MX$ON 0 0 ABS 0
__CFG_LVP$ON 0 0 ABS 0
end_of_initialization 7F26 0 CODE 0
__CFG_USBDIV$1 0 0 ABS 0
GetKey@Row 18 0 COMRAM 1
GetCol@ColValue 11 0 COMRAM 1
__CFG_VREGEN$OFF 0 0 ABS 0
__end_of_KeyPadSetup 7ECE 0 CODE 0
__CFG_PLLDIV$1 0 0 ABS 0
__size_of_SetUp 0 0 ABS 0
__Hibigdata 0 0 CODE 0
__Libigdata 0 0 CODE 0
__Hifardata 0 0 CODE 0
__Lifardata 0 0 CODE 0
__Hbank0 0 0 ABS 0
__Lbank0 0 0 ABS 0
__Hbank1 0 0 ABS 0
__Lbank1 0 0 ABS 0
__Hbank2 0 0 ABS 0
__Lbank2 0 0 ABS 0
__Hbank3 0 0 ABS 0
__Lbank3 0 0 ABS 0
__Hbank4 0 0 ABS 0
__Lbank4 0 0 ABS 0
__Hbank5 0 0 ABS 0
__Lbank5 0 0 ABS 0
_TeclaOprimida 19 0 COMRAM 1
__Hpowerup 0 0 CODE 0
__Lpowerup 0 0 CODE 0
__Hbank6 0 0 ABS 0
__Lbank6 0 0 ABS 0
__Hbank7 0 0 ABS 0
__Lbank7 0 0 ABS 0
__Htext0 0 0 ABS 0
__Ltext0 0 0 ABS 0
__end_of_GetKey 8000 0 CODE 0
__Htext1 0 0 ABS 0
__Ltext1 0 0 ABS 0
__ptext0 7ECE 0 CODE 0
__Htext2 0 0 ABS 0
__Ltext2 0 0 ABS 0
__ptext1 7EEE 0 CODE 0
__Htext3 0 0 ABS 0
__Ltext3 0 0 ABS 0
__ptext2 7F64 0 CODE 0
__Htext4 0 0 ABS 0
__Ltext4 0 0 ABS 0
__ptext3 7EC0 0 CODE 0
__ptext4 7F30 0 CODE 0
__Hclrtext 0 0 ABS 0
__Lclrtext 0 0 ABS 0
__end_of__initialization 7F26 0 CODE 0
__size_of_KeyPadSetup 0 0 ABS 0
___rparam_used 1 0 ABS 0
__Hidata 0 0 CODE 0
__Lidata 0 0 CODE 0
__Hrdata 0 0 COMRAM 1
__Lrdata 0 0 COMRAM 1
__Hidloc 200008 0 IDLOC 0
__Lidloc 200000 0 IDLOC 0
__Hstack 0 0 STACK 2
__Lstack 0 0 STACK 2
__Hparam 0 0 COMRAM 1
__Lparam 0 0 COMRAM 1
__Hspace_0 30000E 0 ABS 0
__HcstackCOMRAM 0 0 ABS 0
__Lspace_0 0 0 ABS 0
__LcstackCOMRAM 0 0 ABS 0
__pcstackCOMRAM 11 0 COMRAM 1
__Hspace_1 1A 0 ABS 0
__Lspace_1 0 0 ABS 0
__Hsmallconst 0 0 SMALLCONST 0
__Lsmallconst 0 0 SMALLCONST 0
__Hspace_2 0 0 ABS 0
__Lspace_2 0 0 ABS 0
__Hnvbit 0 0 COMRAM 1
__Lnvbit 0 0 COMRAM 1
__Hcinit 0 0 ABS 0
__Lcinit 0 0 ABS 0
__pcinit 7F06 0 CODE 0
__CFG_EBTRB$OFF 0 0 ABS 0
__ramtop 800 0 RAM 0
__mediumconst 0 0 MEDIUMCONST 0
__size_of_main 0 0 ABS 0
_KeyPadSetup 7EC0 0 CODE 0
__Hconst 0 0 CONST 0
__Lconst 0 0 CONST 0
__CFG_WRT0$OFF 0 0 ABS 0
__CFG_WRT1$OFF 0 0 ABS 0
__CFG_WRT2$OFF 0 0 ABS 0
__CFG_PWRT$ON 0 0 ABS 0
__CFG_WRT3$OFF 0 0 ABS 0
__CFG_FCMEN$OFF 0 0 ABS 0
GetKey@Cont 16 0 COMRAM 1
__end_of_SetUp 7F06 0 CODE 0
_ADCON1bits FC1 0 ABS 0
___inthi_sp 0 0 STACK 2
GetKey@AnsCol 17 0 COMRAM 1
__CFG_BORV$3 0 0 ABS 0
___intlo_sp 0 0 STACK 2
_OSCCONbits FD3 0 ABS 0
__HidataCOMRAM 0 0 ABS 0
__LidataCOMRAM 0 0 ABS 0
__pidataCOMRAM 7EDE 0 CODE 0
__CFG_CP0$OFF 0 0 ABS 0
__smallconst 0 0 SMALLCONST 0
__CFG_CP1$OFF 0 0 ABS 0
__Hreset_vec 0 0 CODE 0
__Lreset_vec 0 0 CODE 0
__CFG_CP2$OFF 0 0 ABS 0
__CFG_CP3$OFF 0 0 ABS 0
__accesstop 60 0 ABS 0
__Hintcode_body 0 0 ABS 0
__Lintcode_body 0 0 ABS 0
intlevel0 0 0 CODE 0
intlevel1 0 0 CODE 0
__CFG_WRTB$OFF 0 0 ABS 0
intlevel2 0 0 CODE 0
intlevel3 0 0 CODE 0
__CFG_WRTC$OFF 0 0 ABS 0
__CFG_WRTD$OFF 0 0 ABS 0
__size_of_GetKey 0 0 ABS 0
__HdataCOMRAM 0 0 ABS 0
__LdataCOMRAM 0 0 ABS 0
__pdataCOMRAM 1 0 COMRAM 1
__CFG_CPB$OFF 0 0 ABS 0
__CFG_CPD$OFF 0 0 ABS 0
start_initialization 7F06 0 CODE 0
__CFG_IESO$OFF 0 0 ABS 0
__CFG_MCLRE$ON 0 0 ABS 0
__initialization 7F06 0 CODE 0
__CFG_FOSC$INTOSC_EC 0 0 ABS 0
__CFG_LPT1OSC$OFF 0 0 ABS 0
__CFG_ICPRT$OFF 0 0 ABS 0
__activetblptr 2 0 ABS 0
__CFG_WDT$OFF 0 0 ABS 0
__end_of_GetCol 7F64 0 CODE 0
__size_of_GetCol 0 0 ABS 0
%segments
reset_vec 0 3 CODE 0 0
config 300000 30000D CONFIG 300000 0
idloc 200000 200007 IDLOC 200000 0
dataCOMRAM 1 19 COMRAM 1 1
text2 7F64 7FFF CODE 7F64 0
text4 7F30 7F63 CODE 7F30 0
cinit 7F06 7F2F CODE 7F06 0
text1 7EEE 7F05 CODE 7EEE 0
idataCOMRAM 7EDE 7EED CODE 7EDE 0
text0 7ECE 7EDD CODE 7ECE 0
text3 7EC0 7ECD CODE 7EC0 0
%locals
dist/default/production\TecladoMatricial4x4_01.X.production.obj
C:\Program Files (x86)\Microchip\xc8\v1.42\include\pic18f4550.h
C:\Users\Lenovo\AppData\Local\Temp\sfnc.
514 7F06 0 CODE 0
516 7F06 0 CODE 0
519 7F06 0 CODE 0
534 7F06 0 CODE 0
535 7F08 0 CODE 0
536 7F0A 0 CODE 0
537 7F0C 0 CODE 0
538 7F0E 0 CODE 0
539 7F10 0 CODE 0
540 7F12 0 CODE 0
541 7F16 0 CODE 0
542 7F1A 0 CODE 0
543 7F1A 0 CODE 0
544 7F1C 0 CODE 0
545 7F20 0 CODE 0
546 7F22 0 CODE 0
547 7F24 0 CODE 0
553 7F26 0 CODE 0
556 7F26 0 CODE 0
557 7F28 0 CODE 0
558 7F2A 0 CODE 0
559 7F2C 0 CODE 0
main.c
26 7ECE 0 CODE 0
28 7ECE 0 CODE 0
32 7ED2 0 CODE 0
33 7ED8 0 CODE 0
30 7EDC 0 CODE 0
main.c
45 7EEE 0 CODE 0
47 7EEE 0 CODE 0
48 7EF4 0 CODE 0
49 7EFC 0 CODE 0
50 7F00 0 CODE 0
KeyPad.h
35 7F64 0 CODE 0
37 7F64 0 CODE 0
38 7F68 0 CODE 0
39 7F6C 0 CODE 0
40 7F70 0 CODE 0
41 7F74 0 CODE 0
44 7F78 0 CODE 0
46 7F84 0 CODE 0
47 7F9E 0 CODE 0
48 7FAE 0 CODE 0
53 7FB4 0 CODE 0
55 7FBC 0 CODE 0
56 7FBE 0 CODE 0
59 7FC6 0 CODE 0
44 7FCC 0 CODE 0
68 7FD0 0 CODE 0
69 7FD8 0 CODE 0
KeyPad.h
73 7EC0 0 CODE 0
75 7EC0 0 CODE 0
76 7EC8 0 CODE 0
77 7ECC 0 CODE 0
KeyPad.h
80 7F30 0 CODE 0
84 7F32 0 CODE 0
87 7F34 0 CODE 0
89 7F38 0 CODE 0
91 7F3C 0 CODE 0
93 7F40 0 CODE 0
96 7F44 0 CODE 0
84 7F46 0 CODE 0
96 7F60 0 CODE 0
97 7F60 0 CODE 0
98 7F62 0 CODE 0
