__CFG_XINST$OFF 0 0 ABS 0
__S0 30000E 0 ABS 0
__S1 A 0 ABS 0
__S2 0 0 ABS 0
__Hintentry 0 0 ABS 0
__Lintentry 0 0 ABS 0
__size_of_Port_BBSPIInit 0 0 ABS 0
WritePort_BBSPI@port_add 5 0 COMRAM 1
LCDPutStr@ptr 8 0 COMRAM 1
_main 119A 0 CODE 0
___sp 0 0 STACK 2
start 0 0 CODE 0
__size_of_SendByteBBSPI 0 0 ABS 0
__Hirdata 0 0 CODE 0
__Lirdata 0 0 CODE 0
__HRAM 0 0 ABS 0
__LRAM 1 0 ABS 0
__CFG_WDTPS$32768 0 0 ABS 0
__Hconfig 30000E 0 CONFIG 0
__Lconfig 300000 0 CONFIG 0
__Hbigram 0 0 ABS 0
__Lbigram 0 0 ABS 0
__Hrparam 0 0 COMRAM 1
__Lrparam 0 0 COMRAM 1
__size_of_LCDInit 0 0 ABS 0
__Hram 0 0 ABS 0
__Lram 0 0 ABS 0
__Hcomram 0 0 ABS 0
__Lcomram 0 0 ABS 0
__Hsfr 0 0 ABS 0
__Lsfr 0 0 ABS 0
__Hbss 0 0 RAM 1
__CFG_STVREN$ON 0 0 ABS 0
__Lbss 0 0 RAM 1
___param_bank 10 0 ABS 0
__Hnvrram 0 0 COMRAM 1
__Lnvrram 0 0 COMRAM 1
__Heeprom_data 0 0 EEDATA 0
__Leeprom_data 0 0 EEDATA 0
_LATAbits F89 0 ABS 0
_LATCbits F8B 0 ABS 0
__Hintsave_regs 0 0 BIGRAM 1
__Lintsave_regs 0 0 BIGRAM 1
_LATFbits F8E 0 ABS 0
__Hbigbss 0 0 BIGRAM 1
__Lbigbss 0 0 BIGRAM 1
__Hintret 0 0 ABS 0
__Lintret 0 0 ABS 0
__Hramtop 1000 0 RAM 0
__Lramtop 1000 0 RAM 0
__Hstruct 0 0 COMRAM 1
__Lstruct 0 0 COMRAM 1
__Hbigdata 0 0 BIGRAM 1
__Lbigdata 0 0 BIGRAM 1
__Hmediumconst 0 0 MEDIUMCONST 0
__Lmediumconst 0 0 MEDIUMCONST 0
__Hfarbss 0 0 FARRAM 0
__Lfarbss 0 0 FARRAM 0
__Hintcode 0 0 CODE 0
__Lintcode 0 0 CODE 0
__Hfardata 0 0 FARRAM 0
__Lfardata 0 0 FARRAM 0
__Habs1 0 0 ABS 0
__Labs1 0 0 ABS 0
__CFG_EBTR0$OFF 0 0 ABS 0
__HnvFARRAM 0 0 FARRAM 0
__LnvFARRAM 0 0 FARRAM 0
__CFG_EBTR1$OFF 0 0 ABS 0
SendByteBBSPI@bitcount 2 0 COMRAM 1
__CFG_CCP2MX$PORTC 0 0 ABS 0
__CFG_EBTR2$OFF 0 0 ABS 0
_SendByteBBSPI 114A 0 CODE 0
__end_of_LCDPutStr 11EE 0 CODE 0
__end_of_LCDPutChar 1084 0 CODE 0
__Hdata 0 0 ABS 0
__Ldata 0 0 ABS 0
__CFG_EBTR3$OFF 0 0 ABS 0
Port_BBSPIInit@port_dir 4 0 COMRAM 1
stackhi F5F 0 ABS 0
__Htemp 0 0 COMRAM 1
__Ltemp 0 0 COMRAM 1
stacklo 60 0 ABS 0
__Hrbit 0 0 COMRAM 1
__Lrbit 0 0 COMRAM 1
__Hinit 0 0 CODE 0
__CFG_EBTR4$OFF 0 0 ABS 0
__Linit 0 0 CODE 0
__Hintcodelo 0 0 CODE 0
__Lintcodelo 0 0 CODE 0
__Hrbss 0 0 COMRAM 1
__end_of_main 11C4 0 CODE 0
__Lrbss 0 0 COMRAM 1
__Htext 0 0 ABS 0
__Ltext 0 0 ABS 0
__CFG_EBTR5$OFF 0 0 ABS 0
end_of_initialization 1234 0 CODE 0
__size_of_LCDPutStr 0 0 ABS 0
__CFG_EBTR6$OFF 0 0 ABS 0
__CFG_ADDRBW$ADDR20BIT 0 0 ABS 0
__end_of_SendByteBBSPI 119A 0 CODE 0
__size_of_LCDPutChar 0 0 ABS 0
__size_of_LCDPutInst 0 0 ABS 0
_LCDPutStr 11C4 0 CODE 0
__CFG_EBTR7$OFF 0 0 ABS 0
__end_of_LCDInit 114A 0 CODE 0
_TRISAbits F92 0 ABS 0
_TRISCbits F94 0 ABS 0
_TRISFbits F97 0 ABS 0
__CFG_MODE$MC 0 0 ABS 0
__end_of_LCDPutInst 10EA 0 CODE 0
__Hibigdata 0 0 CODE 0
__Libigdata 0 0 CODE 0
__CFG_OSC$HSPLL 0 0 ABS 0
__Hifardata 0 0 CODE 0
__Lifardata 0 0 CODE 0
__Hbank0 0 0 ABS 0
__Lbank0 0 0 ABS 0
__Hbank1 0 0 ABS 0
__Lbank1 0 0 ABS 0
__Hbank2 0 0 ABS 0
__Lbank2 0 0 ABS 0
__Hbank3 0 0 ABS 0
__Lbank3 0 0 ABS 0
__Hbank4 0 0 ABS 0
__Lbank4 0 0 ABS 0
__Hbank5 0 0 ABS 0
__Lbank5 0 0 ABS 0
__Hpowerup 0 0 CODE 0
__Lpowerup 0 0 CODE 0
__Hbank6 0 0 ABS 0
__Lbank6 0 0 ABS 0
__Hbank7 0 0 ABS 0
__Lbank7 0 0 ABS 0
__Hbank8 0 0 ABS 0
__Lbank8 0 0 ABS 0
__Htext0 0 0 ABS 0
__Ltext0 0 0 ABS 0
__Hbank9 0 0 ABS 0
__Lbank9 0 0 ABS 0
__Htext1 0 0 ABS 0
__Ltext1 0 0 ABS 0
__ptext0 119A 0 CODE 0
__Htext2 0 0 ABS 0
__Ltext2 0 0 ABS 0
__ptext1 11C4 0 CODE 0
__Htext3 0 0 ABS 0
__Ltext3 0 0 ABS 0
__ptext2 101E 0 CODE 0
__Htext4 0 0 ABS 0
__Ltext4 0 0 ABS 0
__ptext3 10EA 0 CODE 0
__Htext5 0 0 ABS 0
__Ltext5 0 0 ABS 0
__ptext4 11EE 0 CODE 0
__Htext6 0 0 ABS 0
__Ltext6 0 0 ABS 0
__ptext5 1084 0 CODE 0
__Htext7 0 0 ABS 0
__Ltext7 0 0 ABS 0
__ptext6 1208 0 CODE 0
__Htext8 0 0 ABS 0
__Ltext8 0 0 ABS 0
__ptext7 114A 0 CODE 0
__ptext8 1222 0 CODE 0
__Hclrtext 0 0 ABS 0
__Lclrtext 0 0 ABS 0
__size_of_WritePort_BBSPI 0 0 ABS 0
__CFG_ECCPMX$PORTE 0 0 ABS 0
__end_of__initialization 1234 0 CODE 0
___rparam_used 1 0 ABS 0
_LCDPutChar 101E 0 CODE 0
WritePort_BBSPI@a 4 0 COMRAM 1
__size_of_InitBBSPI 0 0 ABS 0
__Hidata 0 0 CODE 0
__Lidata 0 0 CODE 0
__Hrdata 0 0 COMRAM 1
__Lrdata 0 0 COMRAM 1
__Hidloc 200008 0 IDLOC 0
__Lidloc 200000 0 IDLOC 0
__Hstack 0 0 STACK 2
__Lstack 0 0 STACK 2
__Hparam 0 0 COMRAM 1
__Lparam 0 0 COMRAM 1
__Hspace_0 30000E 0 ABS 0
__HcstackCOMRAM 0 0 ABS 0
__Lspace_0 0 0 ABS 0
__LcstackCOMRAM 0 0 ABS 0
__pcstackCOMRAM 1 0 COMRAM 1
_LCDInit 10EA 0 CODE 0
__Hspace_1 A 0 ABS 0
__Lspace_1 0 0 ABS 0
__Hsmallconst 101E 0 SMALLCONST 0
__Lsmallconst 1000 0 SMALLCONST 0
__psmallconst 1000 0 SMALLCONST 0
__Hspace_2 0 0 ABS 0
__Lspace_2 0 0 ABS 0
__Hnvbit 0 0 COMRAM 1
__Lnvbit 0 0 COMRAM 1
__Hcinit 0 0 ABS 0
__Lcinit 0 0 ABS 0
__pcinit 1234 0 CODE 0
__CFG_EBTRB$OFF 0 0 ABS 0
__ramtop 1000 0 RAM 0
__mediumconst 0 0 MEDIUMCONST 0
__size_of_main 0 0 ABS 0
__Hconst 0 0 CONST 0
__end_of_WritePort_BBSPI 1222 0 CODE 0
__Lconst 0 0 CONST 0
_InitBBSPI 1222 0 CODE 0
__CFG_WRT0$OFF 0 0 ABS 0
__CFG_WRT1$OFF 0 0 ABS 0
__CFG_WRT2$OFF 0 0 ABS 0
__Hbank10 0 0 ABS 0
__Lbank10 0 0 ABS 0
__Hbank11 0 0 ABS 0
__Lbank11 0 0 ABS 0
__CFG_PWRT$ON 0 0 ABS 0
__CFG_WRT3$OFF 0 0 ABS 0
__CFG_FCMEN$OFF 0 0 ABS 0
__Hbank12 0 0 ABS 0
__Lbank12 0 0 ABS 0
__Hbank13 0 0 ABS 0
__Lbank13 0 0 ABS 0
__CFG_WRT4$OFF 0 0 ABS 0
__Hbank14 0 0 ABS 0
__Lbank14 0 0 ABS 0
__Hbank15 0 0 ABS 0
__Lbank15 0 0 ABS 0
__CFG_WRT5$OFF 0 0 ABS 0
__CFG_WRT6$OFF 0 0 ABS 0
___extmem_base 20000 0 ABS 0
__CFG_WRT7$OFF 0 0 ABS 0
___inthi_sp 0 0 STACK 2
__CFG_DATABW$DATA16BIT 0 0 ABS 0
__CFG_BORV$3 0 0 ABS 0
___intlo_sp 0 0 STACK 2
__Hend_init 4 0 CODE 0
__Lend_init 0 0 CODE 0
__CFG_CP0$OFF 0 0 ABS 0
__smallconst 1000 0 SMALLCONST 0
__CFG_CP1$OFF 0 0 ABS 0
__Hreset_vec 0 0 CODE 0
__Lreset_vec 0 0 CODE 0
__CFG_CP2$OFF 0 0 ABS 0
_LCDPutInst 1084 0 CODE 0
__CFG_CP3$OFF 0 0 ABS 0
__CFG_CP4$OFF 0 0 ABS 0
__CFG_CP5$OFF 0 0 ABS 0
__accesstop 60 0 ABS 0
__CFG_CP6$OFF 0 0 ABS 0
__Hintcode_body 0 0 ABS 0
__Lintcode_body 0 0 ABS 0
__CFG_CP7$OFF 0 0 ABS 0
intlevel0 0 0 CODE 0
LCDPutChar@ch 7 0 COMRAM 1
intlevel1 0 0 CODE 0
_Port_BBSPIInit 11EE 0 CODE 0
__CFG_WRTB$OFF 0 0 ABS 0
intlevel2 0 0 CODE 0
intlevel3 0 0 CODE 0
__CFG_WRTC$OFF 0 0 ABS 0
SendByteBBSPI@output 1 0 COMRAM 1
__CFG_WRTD$OFF 0 0 ABS 0
__end_of_InitBBSPI 1234 0 CODE 0
__CFG_CPB$OFF 0 0 ABS 0
__CFG_CPD$OFF 0 0 ABS 0
start_initialization 1234 0 CODE 0
__CFG_BOREN$SBORDIS 0 0 ABS 0
__CFG_BBSIZ$BB2K 0 0 ABS 0
__CFG_IESO$OFF 0 0 ABS 0
__end_of_Port_BBSPIInit 1208 0 CODE 0
__CFG_MCLRE$ON 0 0 ABS 0
__CFG_WAIT$OFF 0 0 ABS 0
__initialization 1234 0 CODE 0
SendByteBBSPI@input 3 0 COMRAM 1
__CFG_LPT1OSC$OFF 0 0 ABS 0
__activetblptr 1 0 ABS 0
LCDPutInst@ch 7 0 COMRAM 1
__CFG_WDT$OFF 0 0 ABS 0
_WritePort_BBSPI 1208 0 CODE 0
__CFG_LVP$OFF 0 0 ABS 0
%segments
reset_vec 0 3 CODE 0 0
smallconst 1000 101D SMALLCONST 1000 0
config 300000 30000D CONFIG 300000 0
idloc 200000 200007 IDLOC 200000 0
cstackCOMRAM 1 9 COMRAM 1 1
text2 101E 1241 CODE 101E 0
%locals
dist/default/production\PRUEBA_01_PIC18F_EXPLORER.X.production.obj
C:\Program Files (x86)\Microchip\xc8\v1.37\include\pic18f8722.h
C:\Users\SEBAST~1\AppData\Local\Temp\s5mg.
1105 1234 0 CODE 0
1107 1234 0 CODE 0
1110 1234 0 CODE 0
1116 1234 0 CODE 0
1119 1234 0 CODE 0
1120 1236 0 CODE 0
1121 1238 0 CODE 0
1122 123A 0 CODE 0
1123 123C 0 CODE 0
1124 123E 0 CODE 0
main.c
13 119A 0 CODE 0
16 119A 0 CODE 0
19 119E 0 CODE 0
20 11A4 0 CODE 0
21 11B0 0 CODE 0
22 11B6 0 CODE 0
24 11C2 0 CODE 0
BBSPI_LCD.c
198 11C4 0 CODE 0
200 11C4 0 CODE 0
BBSPI_LCD.c
160 101E 0 CODE 0
162 1020 0 CODE 0
163 1030 0 CODE 0
164 103A 0 CODE 0
165 1048 0 CODE 0
166 1052 0 CODE 0
167 1060 0 CODE 0
168 106A 0 CODE 0
169 1078 0 CODE 0
170 1082 0 CODE 0
BBSPI_LCD.c
45 10EA 0 CODE 0
47 10EA 0 CODE 0
48 10EE 0 CODE 0
49 10F0 0 CODE 0
50 10F2 0 CODE 0
51 1102 0 CODE 0
52 1104 0 CODE 0
53 110A 0 CODE 0
54 1110 0 CODE 0
55 111A 0 CODE 0
56 112A 0 CODE 0
57 1130 0 CODE 0
58 1136 0 CODE 0
59 113C 0 CODE 0
60 1142 0 CODE 0
61 1148 0 CODE 0
BBSPI_LCD.c
123 11EE 0 CODE 0
128 11F0 0 CODE 0
129 11F2 0 CODE 0
130 11F8 0 CODE 0
131 11FE 0 CODE 0
132 1204 0 CODE 0
133 1206 0 CODE 0
BBSPI_LCD.c
179 1084 0 CODE 0
181 1086 0 CODE 0
182 1096 0 CODE 0
183 10A0 0 CODE 0
184 10AE 0 CODE 0
185 10B8 0 CODE 0
186 10C6 0 CODE 0
187 10D0 0 CODE 0
188 10DE 0 CODE 0
189 10E8 0 CODE 0
BBSPI_LCD.c
144 1208 0 CODE 0
146 120A 0 CODE 0
147 120C 0 CODE 0
148 1212 0 CODE 0
149 1218 0 CODE 0
150 121E 0 CODE 0
151 1220 0 CODE 0
BBSPI_LCD.c
91 114A 0 CODE 0
94 114C 0 CODE 0
96 1150 0 CODE 0
97 115C 0 CODE 0
99 115C 0 CODE 0
100 1160 0 CODE 0
101 1164 0 CODE 0
102 1164 0 CODE 0
104 1166 0 CODE 0
105 116A 0 CODE 0
107 1170 0 CODE 0
108 1176 0 CODE 0
109 1178 0 CODE 0
110 1184 0 CODE 0
111 1190 0 CODE 0
112 1192 0 CODE 0
96 1196 0 CODE 0
BBSPI_LCD.c
70 1222 0 CODE 0
72 1222 0 CODE 0
73 1224 0 CODE 0
74 1226 0 CODE 0
75 1228 0 CODE 0
77 122A 0 CODE 0
78 122C 0 CODE 0
79 122E 0 CODE 0
80 1230 0 CODE 0
81 1232 0 CODE 0
